#FIG 3.2
Landscape
Center
Inches
A4      
100.00
Single
-2
1200 2
0 32 #cfcfcf
1 3 0 1 0 7 100 0 -1 0.000 1 0.0000 4324 4476 56 56 4324 4476 4324 4531
1 3 0 1 0 7 100 0 -1 0.000 1 0.0000 4324 4699 56 56 4324 4699 4324 4754
1 3 0 1 0 7 100 0 -1 0.000 1 0.0000 4324 4978 56 56 4324 4978 4324 5034
2 2 0 0 0 32 100 0 20 0.000 0 0 -1 0 0 5
	 1425 2400 1593 2400 1593 8539 1425 8539 1425 2400
2 2 0 0 0 32 100 0 20 0.000 0 0 -1 0 0 5
	 5309 2411 5477 2411 5477 8550 5309 8550 5309 2411
2 2 0 0 0 32 100 0 20 0.000 0 0 -1 0 0 5
	 3302 2374 3469 2374 3469 8513 3302 8513 3302 2374
2 2 0 0 0 32 100 0 20 0.000 0 0 -1 0 0 5
	 7408 2400 7575 2400 7575 8539 7408 8539 7408 2400
3 2 0 2 0 7 100 0 -1 0.000 0 1 0 3
	1 1 2.00 60.00 120.00
	 3000 7725 2325 7725 1875 7725
	 0.000 -1.000 0.000
3 2 0 2 0 7 100 0 -1 0.000 0 1 0 3
	1 1 2.00 60.00 120.00
	 3000 8175 2325 8175 1878 8175
	 0.000 -1.000 0.000
3 2 0 2 0 7 100 0 -1 0.000 0 1 0 3
	1 1 2.00 66.98 89.30
	 1875 6975 2316 7118 2925 7050
	 0.000 -1.000 0.000
3 2 0 2 0 7 100 0 -1 0.000 0 0 0 3
	 2925 6900 2372 6839 1875 6975
	 0.000 -1.000 0.000
3 2 0 2 0 7 100 0 -1 0.000 0 1 0 3
	1 1 2.00 60.00 120.00
	 2925 3525 2325 3525 1800 3525
	 0.000 -1.000 0.000
3 2 0 2 0 7 100 0 -1 0.000 0 1 0 3
	1 1 2.00 60.00 120.00
	 1800 2925 2325 2850 3000 3000
	 0.000 -1.000 0.000
3 2 0 2 0 7 100 0 -1 0.000 0 1 0 3
	1 1 2.00 60.00 120.00
	 5025 7875 4327 8003 3750 7800
	 0.000 -1.000 0.000
3 2 0 2 0 7 100 0 -1 0.000 0 1 0 3
	1 1 2.00 60.00 120.00
	 3750 7350 4379 7489 5025 7350
	 0.000 -1.000 0.000
3 2 0 2 0 7 100 0 -1 0.000 0 1 0 3
	1 1 2.00 60.00 120.00
	 5025 6225 4350 6150 3675 6300
	 0.000 -1.000 0.000
3 2 0 2 0 7 100 0 -1 0.000 0 1 0 3
	1 1 2.00 60.00 120.00
	 3675 5625 4350 5550 5025 5625
	 0.000 -1.000 0.000
3 2 0 2 0 7 100 0 -1 0.000 0 1 0 3
	1 1 2.00 60.00 120.00
	 4950 3900 4436 4030 3655 3918
	 0.000 -1.000 0.000
3 2 0 2 0 7 100 0 -1 0.000 0 1 0 3
	1 1 2.00 60.00 120.00
	 3675 3375 4379 3304 4950 3375
	 0.000 -1.000 0.000
3 2 0 2 0 7 100 0 -1 0.000 0 1 0 3
	1 1 2.00 60.00 120.00
	 5700 3525 6375 3375 7125 3525
	 0.000 -1.000 0.000
3 2 0 2 0 7 100 0 -1 0.000 0 1 0 3
	1 1 2.00 60.00 120.00
	 7125 3975 6479 4085 5700 3975
	 0.000 -1.000 0.000
3 2 0 2 0 7 100 0 -1 0.000 0 1 0 3
	1 1 2.00 60.00 120.00
	 5700 5850 6300 5700 7125 5850
	 0.000 -1.000 0.000
3 2 0 2 0 7 100 0 -1 0.000 0 1 0 3
	1 1 2.00 60.00 120.00
	 7050 6300 6375 6450 5700 6300
	 0.000 -1.000 0.000
3 2 0 2 0 7 100 0 -1 0.000 0 1 0 3
	1 1 2.00 60.00 120.00
	 5700 7425 6399 7267 7125 7425
	 0.000 -1.000 0.000
3 2 0 2 0 7 100 0 -1 0.000 0 1 0 3
	1 1 2.00 60.00 120.00
	 7050 7800 6450 7950 5700 7800
	 0.000 -1.000 0.000
4 1 0 100 0 12 10 0.0000 4 135 900 2325 8475 ::drag_end\001
4 1 0 100 0 12 10 0.0000 4 135 1620 2400 7950 ::drag_data_delete\001
4 1 0 100 0 12 10 0.0000 4 135 1350 2400 6600 ::drag_data_get\001
4 1 0 100 0 12 10 0.0000 4 135 1080 2325 3825 ::drag_begin\001
4 1 0 100 0 12 10 0.0000 4 135 1440 2400 2625 gtk_drag_begin()\001
4 0 0 100 0 16 12 -0.0000 4 180 945 1425 2250 Application\001
4 0 0 100 0 16 12 -0.0000 4 135 465 3225 2250 GTK+\001
4 1 0 100 0 12 10 0.0000 4 135 720 4350 5400 XdndDrop\001
4 1 0 100 0 12 10 0.0000 4 105 900 4379 4253 XdndStatus\001
4 1 0 100 0 12 10 0.0000 4 105 900 4379 8270 XdndFinish\001
4 1 0 100 0 12 10 0.0000 4 105 1080 4350 3150 XdndPosition\001
4 1 0 100 0 12 10 0.0000 4 135 1530 6450 8175 gtk_drag_finish()\001
4 1 0 100 0 12 10 0.0000 4 135 1800 6375 7125 ::drag_data_received\001
4 1 0 100 0 12 10 0.0000 4 135 1530 6554 6708 gtk_drag_finish()\001
4 1 0 100 0 12 10 -0.0000 4 135 990 6375 5550 ::drag_drop\001
4 1 0 100 0 12 10 -0.0000 4 135 1530 6450 4350 gtk_drag_status()\001
4 1 0 100 0 12 10 -0.0000 4 135 1170 6424 3192 ::drag_motion\001
4 0 0 100 0 16 12 -0.0000 4 180 945 6675 2250 Application\001
4 1 0 100 0 16 10 0.0000 4 150 1305 4425 6075 (convert selection)\001
4 1 0 100 0 16 10 0.0000 4 150 1065 4350 7650 (selection data)\001
4 0 0 100 0 16 12 -0.0000 4 135 600 2100 1800 Source\001
4 0 0 100 0 16 12 -0.0000 4 135 465 5175 2250 GTK+\001
4 0 0 100 0 16 12 -0.0000 4 180 525 6150 1875 Target\001
