#FIG 3.2
Landscape
Center
Inches
Letter  
100.00
Single
-2
1200 2
2 1 2 1 0 7 0 0 -1 3.000 0 0 -1 0 0 2
	 1937 5053 1937 6236
2 1 2 1 0 7 0 0 -1 3.000 0 0 -1 0 0 2
	 6514 6030 1474 6030
2 1 2 1 0 7 0 0 -1 3.000 0 0 -1 0 0 2
	 1474 5876 6514 5876
2 1 2 1 0 7 0 0 -1 3.000 0 0 -1 0 0 2
	 1474 5361 6462 5361
2 1 2 1 0 7 0 0 -1 3.000 0 0 -1 0 0 2
	 6411 5001 6411 5876
2 1 2 1 0 7 0 0 -1 3.000 0 0 -1 0 0 2
	 1783 5361 1783 6236
2 1 0 2 0 7 0 0 -1 4.000 0 0 -1 1 0 2
	1 1 1.00 60.00 90.00
	 3582 6184 1937 6184
2 1 0 2 0 7 0 0 -1 4.000 0 0 -1 1 1 2
	1 1 1.00 60.00 90.00
	1 1 1.00 60.00 90.00
	 1783 6184 1937 6184
2 1 0 2 0 7 0 0 -1 4.000 0 0 -1 1 1 2
	1 1 1.00 60.00 90.00
	1 1 1.00 60.00 90.00
	 1526 5876 1526 6030
2 1 0 2 0 7 0 0 -1 4.000 0 0 -1 1 0 2
	1 1 1.00 60.00 90.00
	 1526 5721 1526 5876
2 1 0 2 0 7 0 0 -1 4.000 0 0 -1 1 0 2
	1 1 1.00 60.00 90.00
	 1526 5516 1526 5361
2 1 2 1 0 7 0 0 -1 3.000 0 0 -1 0 0 2
	 6514 5361 6514 6184
2 1 0 2 0 7 0 0 -1 4.000 0 0 -1 1 0 2
	1 1 1.00 60.00 90.00
	 4148 5156 6411 5156
2 1 0 2 0 7 0 0 -1 4.000 0 0 -1 1 0 2
	1 1 1.00 60.00 90.00
	 4354 6184 6514 6184
2 1 0 2 0 7 0 0 -1 4.000 0 0 -1 1 0 2
	1 1 1.00 60.00 90.00
	 3582 5156 1937 5156
3 2 0 2 0 7 0 0 -1 4.000 0 1 0 3
	1 1 1.00 60.00 90.00
	 1114 6030 1268 5927 1474 5979
	 0.000 -1.000 0.000
3 2 0 2 0 7 0 0 -1 4.000 0 1 0 3
	1 1 1.00 60.00 90.00
	 1680 6493 1834 6390 1886 6287
	 0.000 -1.000 0.000
4 0 0 0 0 1 49 0.0000 4 658 4463 1937 5876 font Type proof\001
4 1 0 0 0 16 12 0.0000 4 180 675 1577 6699 lbearing\001
4 1 0 0 0 16 12 0.0000 4 135 555 1474 5670 ascent\001
4 1 0 0 0 16 12 0.0000 4 135 660 909 6184 descent\001
4 1 0 0 0 16 12 0.0000 4 135 435 3872 5207 width\001
4 1 0 0 0 16 12 0.0000 4 180 690 3976 6233 rbearing\001
