#FIG 3.2
Landscape
Center
Inches
Letter  
100.00
Single
-2
1200 2
0 32 #cfcfcf
5 1 0 2 0 32 110 0 -1 0.000 0 0 0 0 2700.000 2625.000 2325 2625 2400 2400 2700 2250
5 1 0 2 0 32 110 0 -1 0.000 0 1 0 0 2700.000 4650.000 2325 4650 2400 4875 2700 5025
5 1 0 2 0 32 110 0 -1 0.000 0 1 0 0 3750.000 2625.000 4125 2625 4050 2400 3750 2250
5 1 0 2 0 32 110 0 -1 0.000 0 1 0 0 6375.000 2625.000 6750 2625 6675 2400 6375 2250
5 1 0 2 0 32 110 0 -1 0.000 0 0 0 0 3750.000 4650.000 4125 4650 4050 4875 3750 5025
5 1 0 2 0 32 110 0 -1 0.000 0 0 0 0 5100.000 4650.000 5475 4650 5400 4875 5100 5025
5 1 0 2 0 32 110 0 -1 0.000 0 1 0 0 5100.000 2625.000 5475 2625 5400 2400 5100 2250
5 1 0 2 0 32 110 0 -1 0.000 0 0 0 0 6375.000 4650.000 6750 4650 6675 4875 6375 5025
2 1 0 2 0 32 110 0 -1 0.000 0 0 -1 0 0 2
	 2325 3675 2325 2625
2 1 0 2 0 32 110 0 -1 0.000 0 0 -1 0 0 2
	 2700 2250 6375 2250
2 1 0 2 0 32 110 0 -1 0.000 0 0 -1 0 0 2
	 6375 5025 2700 5025
2 4 0 0 0 32 110 0 20 0.000 0 0 7 0 0 5
	 3450 2850 3450 3600 4800 3600 4800 2850 3450 2850
2 4 0 0 0 32 110 0 20 0.000 0 0 7 0 0 5
	 5925 4125 5925 3600 5025 3600 5025 4125 5925 4125
2 1 0 2 0 32 110 0 -1 0.000 0 0 -1 0 0 2
	 4125 3675 4125 4650
2 1 0 2 0 32 110 0 -1 0.000 0 0 -1 0 0 2
	 5475 4200 5475 4650
2 1 0 2 0 32 110 0 -1 0.000 0 0 -1 0 0 2
	 6750 3450 6750 4650
2 1 0 2 0 32 110 0 -1 0.000 0 0 -1 1 0 2
	1 1 2.00 60.00 120.00
	 4125 2625 4125 2775
2 1 0 2 0 32 110 0 -1 0.000 0 0 -1 1 0 2
	1 1 2.00 60.00 120.00
	 5475 2625 5475 3525
2 1 0 2 0 32 110 0 -1 0.000 0 0 -1 1 0 2
	1 1 2.00 60.00 120.00
	 6750 2625 6750 2850
2 4 0 0 0 32 110 0 20 0.000 0 0 7 0 0 5
	 7425 3375 7425 2925 6075 2925 6075 3375 7425 3375
3 2 0 2 0 32 110 0 -1 0.000 0 1 0 2
	1 1 2.00 60.00 120.00
	 2325 4650 2325 4050
	 0.000 0.000
4 1 0 100 0 16 12 0.0000 4 135 570 4125 3075 Events\001
4 1 0 100 0 16 12 0.0000 4 180 1215 4125 3300 Input Handlers\001
4 1 0 100 0 16 12 0.0000 4 135 735 4125 3525 Timeouts\001
4 1 0 100 0 16 12 0.0000 4 135 630 5475 3825 Redraw\001
4 1 0 100 0 16 12 0.0000 4 135 555 5475 4050 Resize\001
4 1 0 100 0 16 12 0.0000 4 135 1185 6750 3225 Idle Functions\001
4 1 0 100 0 12 12 0.0000 4 180 1890 2550 3900 g_main_iteration()\001
