#FIG 3.2
Landscape
Center
Inches
Letter  
100.00
Single
-2
1200 2
2 1 0 1 0 7 100 0 -1 0.000 0 0 -1 0 0 2
	 1275 1800 4200 1800
2 4 0 1 0 7 100 0 -1 0.000 0 0 7 0 0 5
	 10275 3150 10275 1350 7350 1350 7350 3150 10275 3150
2 1 0 1 0 7 100 0 -1 0.000 0 0 -1 0 0 2
	 7350 1875 10275 1875
2 4 0 1 0 7 100 0 -1 0.000 0 0 7 0 0 5
	 4200 4650 4200 1275 1275 1275 1275 4650 4200 4650
2 1 0 1 0 7 100 0 -1 0.000 0 0 -1 0 0 2
	 1275 1875 4200 1875
2 1 0 1 0 7 100 0 -1 0.000 0 0 -1 0 0 2
	 1275 2250 4200 2250
2 1 0 1 0 7 100 0 -1 0.000 0 0 -1 0 0 2
	 1275 2625 4200 2625
2 1 0 1 0 7 100 0 -1 0.000 0 0 -1 1 0 3
	1 1 1.00 120.00 180.00
	 4875 825 4425 975 3900 1275
3 2 0 1 0 7 100 0 -1 0.000 0 1 0 3
	1 1 1.00 150.00 180.00
	 4200 2100 5550 2025 7350 1650
	 0.000 -1.000 0.000
3 2 0 1 0 7 100 0 -1 0.000 0 1 0 3
	1 1 1.00 120.00 180.00
	 7350 1350 7050 1050 6225 825
	 0.000 -1.000 0.000
4 1 0 100 0 0 18 0.0000 4 195 1050 8700 1725 GtkCList\001
4 1 0 100 0 0 18 0.0000 4 255 1065 2625 1650 EntryList\001
4 1 0 100 0 0 16 0.0000 4 225 1575 2625 2175 GtkWidget *clist\001
4 1 0 100 0 0 16 0.0000 4 225 1620 2625 2550 gint current_row\001
4 1 0 100 0 0 18 0.0000 4 255 1320 5550 900 "entry-list"\001
4 1 0 100 0 0 16 0.0000 4 225 2145 7875 825 gtk_object_set_data()\001
