%!PS-Adobe-2.0 EPSF-2.0
%%Creator: pnmtops
%%Title: noname.ps
%%Pages: 1
%%BoundingBox: 293 370 318 392
%%EndComments
/rlestr1 1 string def
/readrlestring {
  /rlestr exch def
  currentfile rlestr1 readhexstring pop
  0 get
  dup 127 le {
    currentfile rlestr 0
    4 3 roll
    1 add  getinterval
    readhexstring pop
    length
  } {
    256 exch sub dup
    currentfile rlestr1 readhexstring pop
    0 get
    exch 0 exch 1 exch 1 sub {
      rlestr exch 2 index put
    } for
    pop
  } ifelse
} bind def
/readstring {
  dup length 0 {
    3 copy exch
    1 index sub
    getinterval
    readrlestring
    add
    2 copy le { exit } if
  } loop
  pop pop
} bind def
/picstr 26 string def
%%EndProlog
%%Page: 1 1
gsave
293.52 370.44 translate
24.96 21.12 scale
26 22 8
[ 26 0 0 -22 0 22 ]
{ picstr readstring }
image
e6b2e6b2e6b2e6b2e6b2e6b201b200edb20000fcb201b200edb20000fcb2
01b200f9b2fd00fcb2090000b2b2000000b2b2b201b200fab21100b2b2b2
00b2b200b2b200b2b200b2b200b201b200f6b20300b2b200fbb20000fcb2
01b200f9b2fc00fdb2050000b2b2b200fcb201b200fab20400b2b2b200fb
b20300b2b200fcb201b200fab20d00b2b2b200b2b200b2b200b2b200fcb2
00b2fb00fdb2fd000db200b2b20000b2b2b20000b200b2e6b2e6b2e6b2e6
b2e6b2e6b2e6b2
grestore
showpage
%%Trailer
