%!PS-Adobe-2.0 EPSF-2.0
%%Creator: pnmtops
%%Title: noname.ps
%%Pages: 1
%%BoundingBox: 287 370 325 392
%%EndComments
/rlestr1 1 string def
/readrlestring {
  /rlestr exch def
  currentfile rlestr1 readhexstring pop
  0 get
  dup 127 le {
    currentfile rlestr 0
    4 3 roll
    1 add  getinterval
    readhexstring pop
    length
  } {
    256 exch sub dup
    currentfile rlestr1 readhexstring pop
    0 get
    exch 0 exch 1 exch 1 sub {
      rlestr exch 2 index put
    } for
    pop
  } ifelse
} bind def
/readstring {
  dup length 0 {
    3 copy exch
    1 index sub
    getinterval
    readrlestring
    add
    2 copy le { exit } if
  } loop
  pop pop
} bind def
/picstr 39 string def
%%EndProlog
%%Page: 1 1
gsave
287.28 370.44 translate
37.44 21.12 scale
39 22 8
[ 39 0 0 -22 0 22 ]
{ picstr readstring }
image
d9b2d9b2d9b2d9b2d9b2d9b200b2fb00fdb20000e3b201b200fcb20300b2
b200e3b201b200fcb20600b2b200b20000fcb2fd00fdb20300b20000fcb2
fd00fbb201b200fcb22000b2b20000b2b200b2b200b2b2b200b2b20000b2
b200b2b200b2b2b200b2b200b200b2fb00fdb21900b2b2b200b2b200b2b2
b200b2b200b2b2b200b2b200b2b2b200fcb201b200f9b21400b2b2b200b2
b200b2b2b200b2b200b2b2b200b2b2fb00fcb201b200f9b21500b2b2b200
b2b200b2b2b200b2b200b2b2b200b2b200f8b201b200f9b21900b2b2b200
b2b200b2b2b200b2b200b2b2b200b2b200b2b2b200fcb201b200f9b21d00
b2b2b200b2b2b2000000b2b2b200b2b2b200b2b2b2000000b2b2b200b2d9
b2d9b2d9b2d9b2d9b2d9b2d9b2
grestore
showpage
%%Trailer
