%!PS-Adobe-2.0 EPSF-2.0
%%Creator: pnmtops
%%Title: noname.ps
%%Pages: 1
%%BoundingBox: 290 370 322 392
%%EndComments
/rlestr1 1 string def
/readrlestring {
  /rlestr exch def
  currentfile rlestr1 readhexstring pop
  0 get
  dup 127 le {
    currentfile rlestr 0
    4 3 roll
    1 add  getinterval
    readhexstring pop
    length
  } {
    256 exch sub dup
    currentfile rlestr1 readhexstring pop
    0 get
    exch 0 exch 1 exch 1 sub {
      rlestr exch 2 index put
    } for
    pop
  } ifelse
} bind def
/readstring {
  dup length 0 {
    3 copy exch
    1 index sub
    getinterval
    readrlestring
    add
    2 copy le { exit } if
  } loop
  pop pop
} bind def
/picstr 33 string def
%%EndProlog
%%Page: 1 1
gsave
290.16 370.44 translate
31.68 21.12 scale
33 22 8
[ 33 0 0 -22 0 22 ]
{ picstr readstring }
image
dfb2dfb2dfb2dfb2dfb2dfb200b2fa00eeb20300b2b200fcb201b200e6b2
0000fcb201b200f9b20500b200b2b200fcb2fd00fdb20300b2b200fcb201
b200f9b2170000b20000b200b2b200b2b2b200b2b200b2b200b2b200b200
b2fa0008b2b200b2b200b2b200fab20600b2b200b2b200fcb201b200f9b2
0900b2b200b2b200b2b2b2fc0005b2b200b2b200fcb201b200f9b21300b2
b200b2b200b2b200b2b2b200b2b200b2b200fcb201b200f9b21300b2b200
b2b200b2b200b2b2b200b2b200b2b200fcb200b2fa0019b2b200b2b200b2
b200b2b2b2000000b200b200b2b200b2b200b2dfb2dfb2dfb2dfb2dfb2df
b2dfb2
grestore
showpage
%%Trailer
