%!PS-Adobe-2.0 EPSF-2.0
%%Creator: pnmtops
%%Title: noname.ps
%%Pages: 1
%%BoundingBox: 293 370 319 392
%%EndComments
/rlestr1 1 string def
/readrlestring {
  /rlestr exch def
  currentfile rlestr1 readhexstring pop
  0 get
  dup 127 le {
    currentfile rlestr 0
    4 3 roll
    1 add  getinterval
    readhexstring pop
    length
  } {
    256 exch sub dup
    currentfile rlestr1 readhexstring pop
    0 get
    exch 0 exch 1 exch 1 sub {
      rlestr exch 2 index put
    } for
    pop
  } ifelse
} bind def
/readstring {
  dup length 0 {
    3 copy exch
    1 index sub
    getinterval
    readrlestring
    add
    2 copy le { exit } if
  } loop
  pop pop
} bind def
/picstr 27 string def
%%EndProlog
%%Page: 1 1
gsave
293.04 370.44 translate
25.92 21.12 scale
27 22 8
[ 27 0 0 -22 0 22 ]
{ picstr readstring }
image
e5b2e5b2e5b2e5b2e5b2e5b200b2fa0002b2b200f4b20000fcb201b200ec
b20000fcb201b200f9b21100b2b200b200b2b20000b2b2000000b2b2b201
b200f9b21100b2b20000b2b200b2b200b2b200b2b200b200b2fb00fdb207
00b2b200b2b2b200fbb20000fcb201b200f9b20300b2b200fcb2050000b2
b2b200fcb201b200f9b20300b2b200fab20300b2b200fcb201b200f9b20d
00b2b200b2b2b200b2b200b2b200fcb201b200f9b20300b2b200fcb20900
00b2b2b20000b200b2e5b2e5b2e5b2e5b2e5b2e5b2e5b2
grestore
showpage
%%Trailer
