%!PS-Adobe-2.0 EPSF-2.0
%%Creator: pnmtops
%%Title: noname.ps
%%Pages: 1
%%BoundingBox: 293 370 318 392
%%EndComments
/rlestr1 1 string def
/readrlestring {
  /rlestr exch def
  currentfile rlestr1 readhexstring pop
  0 get
  dup 127 le {
    currentfile rlestr 0
    4 3 roll
    1 add  getinterval
    readhexstring pop
    length
  } {
    256 exch sub dup
    currentfile rlestr1 readhexstring pop
    0 get
    exch 0 exch 1 exch 1 sub {
      rlestr exch 2 index put
    } for
    pop
  } ifelse
} bind def
/readstring {
  dup length 0 {
    3 copy exch
    1 index sub
    getinterval
    readrlestring
    add
    2 copy le { exit } if
  } loop
  pop pop
} bind def
/picstr 26 string def
%%EndProlog
%%Page: 1 1
gsave
293.52 370.44 translate
24.96 21.12 scale
26 22 8
[ 26 0 0 -22 0 22 ]
{ picstr readstring }
image
e6b2e6b2e6b2e6b2e6b2e6b200b2fb00ecb201b200fcb20000edb201b200
fbb20e00b2b2b2000000b2b2b200b2b2b200fcb201b200fbb21200b2b200
b2b2b200b2b200b2b2b200b2b200b201b200fbb20000fab20700b2b200b2
b2b200fcb201b200fbb20300b2b2b2fc0005b2b200b2b200fbb201b200fb
b20d00b2b200b2b2b200b2b2b200b200fbb201b200fcb20e00b2b2b200b2
b2b200b2b2b200b200fbb200b2fb00fbb2fd0005b200b2b2b200fcb20100
b2edb20000fab2eeb20000f9b2efb20000f8b2e6b2e6b2e6b2e6b2
grestore
showpage
%%Trailer
