#FIG 3.2
Landscape
Center
Inches
A4      
100.00
Single
-2
1200 2
6 4575 675 4875 975
1 3 0 1 0 7 100 0 -1 0.000 1 0.0000 4725 825 106 106 4725 825 4800 900
4 1 0 100 0 16 12 0.0000 4 135 135 4725 900 A\001
-6
6 5400 1875 7275 2700
6 6900 1875 7200 2175
1 3 0 1 0 7 100 0 -1 0.000 1 0.0000 7050 2025 106 106 7050 2025 7125 2100
4 1 0 100 0 16 12 0.0000 4 135 120 7050 2100 B\001
-6
2 5 0 1 0 -1 100 0 -1 0.000 0 0 -1 0 0 5
	0 addressbook2-1.eps
	 5400 2175 7216 2175 7216 2654 5400 2654 5400 2175
4 1 0 100 0 16 12 0.0000 4 135 795 6300 2100 GtkFrame\001
-6
6 5400 2775 7275 3600
6 6900 2775 7200 3075
1 3 0 1 0 7 100 0 -1 0.000 1 0.0000 7050 2925 106 106 7050 2925 7125 3000
4 1 0 100 0 16 12 0.0000 4 135 120 7050 3000 B\001
-6
2 5 0 1 0 -1 100 0 -1 0.000 0 0 -1 0 0 5
	0 addressbook2-2.eps
	 5400 3075 7216 3075 7216 3558 5400 3558 5400 3075
4 1 0 100 0 16 12 0.0000 4 135 795 6300 3000 GtkFrame\001
-6
2 5 0 1 0 -1 100 0 -1 0.000 0 0 -1 0 0 5
	0 addressbook1.eps
	 3075 975 4891 975 4891 1579 3075 1579 3075 975
2 5 0 1 0 -1 100 0 -1 0.000 0 0 -1 0 0 5
	0 addressbook2.eps
	 3075 2325 4891 2325 4891 3316 3075 3316 3075 2325
2 1 0 2 0 7 100 0 -1 0.000 0 0 -1 1 0 2
	1 1 1.00 60.00 90.00
	 4950 2550 5325 2400
2 1 0 2 0 7 100 0 -1 0.000 0 0 -1 1 0 2
	1 1 1.00 60.00 90.00
	 4950 3075 5325 3225
2 1 0 2 0 7 100 0 -1 0.000 0 0 -1 1 0 2
	1 1 1.00 60.00 90.00
	 2625 1500 3000 1275
2 1 0 2 0 7 100 0 -1 0.000 0 0 -1 1 0 2
	1 1 1.00 60.00 90.00
	 2625 2550 3000 2775
2 5 0 1 0 -1 100 0 -1 0.000 0 0 -1 0 0 5
	0 addressbook.eps
	 734 1350 2550 1350 2550 2958 734 2958 734 1350
4 1 0 100 0 16 12 0.0000 4 135 945 3975 2250 GtkVPaned\001
4 1 0 100 0 16 12 0.0000 4 135 795 3975 900 GtkFrame\001
4 1 0 100 0 16 12 0.0000 4 135 720 1650 1275 GtkVBox\001
