%!PS-Adobe-2.0 EPSF-2.0
%%Title: boxpack.eps
%%Creator: fig2dev Version 3.2 Patchlevel 1
%%CreationDate: Sun Sep 12 22:15:54 1999
%%For: otaylor@fresnel.labs.redhat.com (Owen Taylor,,547-0012 x249)
%%Orientation: Portrait
%%BoundingBox: 0 0 429 338
%%Pages: 0
%%BeginSetup
%%EndSetup
%%Magnification: 0.6900
%%EndComments
/$F2psDict 200 dict def
$F2psDict begin
$F2psDict /mtrx matrix put
/col-1 {0 setgray} bind def
/col0 {0.000 0.000 0.000 srgb} bind def
/col1 {0.000 0.000 1.000 srgb} bind def
/col2 {0.000 1.000 0.000 srgb} bind def
/col3 {0.000 1.000 1.000 srgb} bind def
/col4 {1.000 0.000 0.000 srgb} bind def
/col5 {1.000 0.000 1.000 srgb} bind def
/col6 {1.000 1.000 0.000 srgb} bind def
/col7 {1.000 1.000 1.000 srgb} bind def
/col8 {0.000 0.000 0.560 srgb} bind def
/col9 {0.000 0.000 0.690 srgb} bind def
/col10 {0.000 0.000 0.820 srgb} bind def
/col11 {0.530 0.810 1.000 srgb} bind def
/col12 {0.000 0.560 0.000 srgb} bind def
/col13 {0.000 0.690 0.000 srgb} bind def
/col14 {0.000 0.820 0.000 srgb} bind def
/col15 {0.000 0.560 0.560 srgb} bind def
/col16 {0.000 0.690 0.690 srgb} bind def
/col17 {0.000 0.820 0.820 srgb} bind def
/col18 {0.560 0.000 0.000 srgb} bind def
/col19 {0.690 0.000 0.000 srgb} bind def
/col20 {0.820 0.000 0.000 srgb} bind def
/col21 {0.560 0.000 0.560 srgb} bind def
/col22 {0.690 0.000 0.690 srgb} bind def
/col23 {0.820 0.000 0.820 srgb} bind def
/col24 {0.500 0.190 0.000 srgb} bind def
/col25 {0.630 0.250 0.000 srgb} bind def
/col26 {0.750 0.380 0.000 srgb} bind def
/col27 {1.000 0.500 0.500 srgb} bind def
/col28 {1.000 0.630 0.630 srgb} bind def
/col29 {1.000 0.750 0.750 srgb} bind def
/col30 {1.000 0.880 0.880 srgb} bind def
/col31 {1.000 0.840 0.000 srgb} bind def

end
save
-71.0 346.0 translate
1 -1 scale

/cp {closepath} bind def
/ef {eofill} bind def
/gr {grestore} bind def
/gs {gsave} bind def
/sa {save} bind def
/rs {restore} bind def
/l {lineto} bind def
/m {moveto} bind def
/rm {rmoveto} bind def
/n {newpath} bind def
/s {stroke} bind def
/sh {show} bind def
/slc {setlinecap} bind def
/slj {setlinejoin} bind def
/slw {setlinewidth} bind def
/srgb {setrgbcolor} bind def
/rot {rotate} bind def
/sc {scale} bind def
/sd {setdash} bind def
/ff {findfont} bind def
/sf {setfont} bind def
/scf {scalefont} bind def
/sw {stringwidth} bind def
/tr {translate} bind def
/tnt {dup dup currentrgbcolor
  4 -2 roll dup 1 exch sub 3 -1 roll mul add
  4 -2 roll dup 1 exch sub 3 -1 roll mul add
  4 -2 roll dup 1 exch sub 3 -1 roll mul add srgb}
  bind def
/shd {dup dup currentrgbcolor 4 -2 roll mul 4 -2 roll mul
  4 -2 roll mul srgb} bind def
/$F2psBegin {$F2psDict begin /$F2psEnteredState save def} def
/$F2psEnd {$F2psEnteredState restore end} def
%%EndProlog

$F2psBegin
10 setmiterlimit
n -1000 9347 m -1000 -1000 l 13055 -1000 l 13055 9347 l cp clip
 0.04140 0.04140 sc
% Polyline
15.000 slw
gs  clippath
7695 1080 m 7575 1050 l 7695 1020 l 7545 1020 l 7545 1080 l cp
clip
n 9000 1050 m 7575 1050 l gs col0 s gr gr

% arrowhead
7.500 slw
n 7695 1080 m 7575 1050 l 7695 1020 l  col0 s
% Polyline
15.000 slw
gs  clippath
5205 1620 m 5325 1650 l 5205 1680 l 5355 1680 l 5355 1620 l cp
clip
n 3975 1650 m 5325 1650 l gs col0 s gr gr

% arrowhead
7.500 slw
n 5205 1620 m 5325 1650 l 5205 1680 l  col0 s
% Polyline
15.000 slw
gs  clippath
5130 2745 m 5250 2775 l 5130 2805 l 5280 2805 l 5280 2745 l cp
clip
n 3975 1650 m 4425 2775 l 5250 2775 l gs col0 s gr gr

% arrowhead
7.500 slw
n 5130 2745 m 5250 2775 l 5130 2805 l  col0 s
% Polyline
15.000 slw
n 4875 375 m 7500 375 l 7500 1350 l 4875 1350 l cp gs col0 s gr 
% Polyline
n 4875 1500 m 7500 1500 l 7500 2925 l 4875 2925 l cp gs col0 s gr 
% Polyline
n 4875 1725 m 7500 1725 l 7500 2700 l 4875 2700 l cp gs col0 s gr 
% Polyline
n 4875 3075 m 7500 3075 l 7500 5550 l 4875 5550 l cp gs col0 s gr 
% Polyline
n 4875 3825 m 7500 3825 l 7500 4800 l 4875 4800 l cp gs col0 s gr 
% Polyline
gs  clippath
5055 3420 m 5175 3450 l 5055 3480 l 5205 3480 l 5205 3420 l cp
clip
n 4050 3450 m 5175 3450 l gs col0 s gr gr

% arrowhead
7.500 slw
n 5055 3420 m 5175 3450 l 5055 3480 l  col0 s
% Polyline
15.000 slw
gs  clippath
4980 5145 m 5100 5175 l 4980 5205 l 5130 5205 l 5130 5145 l cp
clip
n 4050 3450 m 4350 5175 l 5100 5175 l gs col0 s gr gr

% arrowhead
7.500 slw
n 4980 5145 m 5100 5175 l 4980 5205 l  col0 s
% Polyline
15.000 slw
n 4875 5700 m 7500 5700 l 7500 8175 l 4875 8175 l cp gs col0 s gr 
% Polyline
n 4875 375 m 7500 375 l 7500 8175 l 4875 8175 l cp gs col0 s gr 
% Polyline
n 4725 225 m 7650 225 l 7650 8325 l 4725 8325 l cp gs col0 s gr 
% Polyline
gs  clippath
7201 1522 m 7125 1425 l 7238 1475 l 7120 1383 l 7083 1430 l cp
clip
n 9150 3000 m 7125 1425 l gs col0 s gr gr

% arrowhead
7.500 slw
n 7201 1522 m 7125 1425 l 7238 1475 l  col0 s
% Polyline
15.000 slw
gs  clippath
7170 3030 m 7050 3000 l 7170 2970 l 7020 2970 l 7020 3030 l cp
clip
n 9150 3000 m 7050 3000 l gs col0 s gr gr

% arrowhead
7.500 slw
n 7170 3030 m 7050 3000 l 7170 2970 l  col0 s
% Polyline
15.000 slw
gs  clippath
7222 5548 m 7125 5625 l 7175 5512 l 7083 5630 l 7130 5667 l cp
clip
n 9150 3000 m 7125 5625 l gs col0 s gr gr

% arrowhead
7.500 slw
n 7222 5548 m 7125 5625 l 7175 5512 l  col0 s
% Polyline
15.000 slw
gs  clippath
5205 6195 m 5325 6225 l 5205 6255 l 5355 6255 l 5355 6195 l cp
clip
n 4125 6225 m 5325 6225 l gs col0 s gr gr

% arrowhead
7.500 slw
n 5205 6195 m 5325 6225 l 5205 6255 l  col0 s
/Times-Roman ff 180.00 scf sf
9075 1050 m
gs 1 -1 sc (Window border as set by) col0 sh gr
/Times-Roman ff 180.00 scf sf
9075 1275 m
gs 1 -1 sc (gtk_container_set_border_width \(\).) col0 sh gr
/Times-Roman ff 180.00 scf sf
1950 1275 m
gs 1 -1 sc (Extra space reserved for widget) col0 sh gr
/Times-Roman ff 180.00 scf sf
1950 1500 m
gs 1 -1 sc (as set with 'padding' argument) col0 sh gr
/Times-Roman ff 180.00 scf sf
1950 1725 m
gs 1 -1 sc (to gtk_box_pack_start\(\).) col0 sh gr
/Times-Roman ff 180.00 scf sf
5850 975 m
gs 1 -1 sc (Button 1) col0 sh gr
/Times-Roman ff 180.00 scf sf
5850 2250 m
gs 1 -1 sc (Button 2) col0 sh gr
/Times-Roman ff 180.00 scf sf
5850 4425 m
gs 1 -1 sc (Button 3) col0 sh gr
/Times-Roman ff 180.00 scf sf
5925 7050 m
gs 1 -1 sc (Button 4) col0 sh gr
/Times-Roman ff 180.00 scf sf
1725 3075 m
gs 1 -1 sc (Widget's space expanded) col0 sh gr
/Times-Roman ff 180.00 scf sf
1725 3300 m
gs 1 -1 sc (because 'expand' argument) col0 sh gr
/Times-Roman ff 180.00 scf sf
1725 3525 m
gs 1 -1 sc (was set to TRUE in call) col0 sh gr
/Times-Roman ff 180.00 scf sf
1725 3750 m
gs 1 -1 sc (to gtk_box_pack_start.) col0 sh gr
/Times-Roman ff 180.00 scf sf
1725 3975 m
gs 1 -1 sc (The 'fill' was set to FALSE so) col0 sh gr
/Times-Roman ff 180.00 scf sf
1725 4200 m
gs 1 -1 sc (the button itself did not) col0 sh gr
/Times-Roman ff 180.00 scf sf
1725 4425 m
gs 1 -1 sc (fill this allocation.) col0 sh gr
/Times-Roman ff 180.00 scf sf
9225 3000 m
gs 1 -1 sc (Space allocated between widgets as) col0 sh gr
/Times-Roman ff 180.00 scf sf
9225 3225 m
gs 1 -1 sc (set by the 'spacing' argument in) col0 sh gr
/Times-Roman ff 180.00 scf sf
9225 3450 m
gs 1 -1 sc (gtk_vbox_new\(\).) col0 sh gr
/Times-Roman ff 180.00 scf sf
1725 6000 m
gs 1 -1 sc (This widget was packed with) col0 sh gr
/Times-Roman ff 180.00 scf sf
1725 6225 m
gs 1 -1 sc (both 'expand' and 'fill' set to) col0 sh gr
/Times-Roman ff 180.00 scf sf
1725 6450 m
gs 1 -1 sc (TRUE, so it uses up all its) col0 sh gr
/Times-Roman ff 180.00 scf sf
1725 6675 m
gs 1 -1 sc (available space, and the) col0 sh gr
/Times-Roman ff 180.00 scf sf
1725 6900 m
gs 1 -1 sc (widget itself grows to fill this) col0 sh gr
/Times-Roman ff 180.00 scf sf
1725 7125 m
gs 1 -1 sc (area.) col0 sh gr
$F2psEnd
rs
