%!PS-Adobe-2.0 EPSF-2.0
%%Title: dnd-sequence.eps
%%Creator: fig2dev Version 3.2 Patchlevel 1
%%CreationDate: Sun Nov 21 09:39:39 1999
%%For: otaylor@lablap.labs.redhat.com (Owen Taylor)
%%Orientation: Portrait
%%BoundingBox: 0 0 374 415
%%Pages: 0
%%BeginSetup
%%EndSetup
%%Magnification: 1.0000
%%EndComments
/$F2psDict 200 dict def
$F2psDict begin
$F2psDict /mtrx matrix put
/col-1 {0 setgray} bind def
/col0 {0.000 0.000 0.000 srgb} bind def
/col1 {0.000 0.000 1.000 srgb} bind def
/col2 {0.000 1.000 0.000 srgb} bind def
/col3 {0.000 1.000 1.000 srgb} bind def
/col4 {1.000 0.000 0.000 srgb} bind def
/col5 {1.000 0.000 1.000 srgb} bind def
/col6 {1.000 1.000 0.000 srgb} bind def
/col7 {1.000 1.000 1.000 srgb} bind def
/col8 {0.000 0.000 0.560 srgb} bind def
/col9 {0.000 0.000 0.690 srgb} bind def
/col10 {0.000 0.000 0.820 srgb} bind def
/col11 {0.530 0.810 1.000 srgb} bind def
/col12 {0.000 0.560 0.000 srgb} bind def
/col13 {0.000 0.690 0.000 srgb} bind def
/col14 {0.000 0.820 0.000 srgb} bind def
/col15 {0.000 0.560 0.560 srgb} bind def
/col16 {0.000 0.690 0.690 srgb} bind def
/col17 {0.000 0.820 0.820 srgb} bind def
/col18 {0.560 0.000 0.000 srgb} bind def
/col19 {0.690 0.000 0.000 srgb} bind def
/col20 {0.820 0.000 0.000 srgb} bind def
/col21 {0.560 0.000 0.560 srgb} bind def
/col22 {0.690 0.000 0.690 srgb} bind def
/col23 {0.820 0.000 0.820 srgb} bind def
/col24 {0.500 0.190 0.000 srgb} bind def
/col25 {0.630 0.250 0.000 srgb} bind def
/col26 {0.750 0.380 0.000 srgb} bind def
/col27 {1.000 0.500 0.500 srgb} bind def
/col28 {1.000 0.630 0.630 srgb} bind def
/col29 {1.000 0.750 0.750 srgb} bind def
/col30 {1.000 0.880 0.880 srgb} bind def
/col31 {1.000 0.840 0.000 srgb} bind def
/col32 {0.812 0.812 0.812 srgb} bind def

end
save
-85.0 514.0 translate
1 -1 scale

/cp {closepath} bind def
/ef {eofill} bind def
/gr {grestore} bind def
/gs {gsave} bind def
/sa {save} bind def
/rs {restore} bind def
/l {lineto} bind def
/m {moveto} bind def
/rm {rmoveto} bind def
/n {newpath} bind def
/s {stroke} bind def
/sh {show} bind def
/slc {setlinecap} bind def
/slj {setlinejoin} bind def
/slw {setlinewidth} bind def
/srgb {setrgbcolor} bind def
/rot {rotate} bind def
/sc {scale} bind def
/sd {setdash} bind def
/ff {findfont} bind def
/sf {setfont} bind def
/scf {scalefont} bind def
/sw {stringwidth} bind def
/tr {translate} bind def
/tnt {dup dup currentrgbcolor
  4 -2 roll dup 1 exch sub 3 -1 roll mul add
  4 -2 roll dup 1 exch sub 3 -1 roll mul add
  4 -2 roll dup 1 exch sub 3 -1 roll mul add srgb}
  bind def
/shd {dup dup currentrgbcolor 4 -2 roll mul 4 -2 roll mul
  4 -2 roll mul srgb} bind def
 /DrawEllipse {
	/endangle exch def
	/startangle exch def
	/yrad exch def
	/xrad exch def
	/y exch def
	/x exch def
	/savematrix mtrx currentmatrix def
	x y tr xrad yrad sc 0 0 1 startangle endangle arc
	closepath
	savematrix setmatrix
	} def

/$F2psBegin {$F2psDict begin /$F2psEnteredState save def} def
/$F2psEnd {$F2psEnteredState restore end} def
%%EndProlog

$F2psBegin
10 setmiterlimit
n -1000 9551 m -1000 -1000 l 8644 -1000 l 8644 9551 l cp clip
 0.06000 0.06000 sc
7.500 slw
% Ellipse
n 4324 4476 56 56 0 360 DrawEllipse gs col0 s gr

% Ellipse
n 4324 4699 56 56 0 360 DrawEllipse gs col0 s gr

% Ellipse
n 4324 4978 56 56 0 360 DrawEllipse gs col0 s gr

% Polyline
0.000 slw
n 1425 2400 m 1593 2400 l 1593 8539 l 1425 8539 l cp gs col32 1.00 shd ef gr 
% Polyline
n 5309 2411 m 5477 2411 l 5477 8550 l 5309 8550 l cp gs col32 1.00 shd ef gr 
% Polyline
n 3302 2374 m 3469 2374 l 3469 8513 l 3302 8513 l cp gs col32 1.00 shd ef gr 
% Polyline
n 7408 2400 m 7575 2400 l 7575 8539 l 7408 8539 l cp gs col32 1.00 shd ef gr 
% Polyline
15.000 slw
gs  clippath
2026 7755 m 1905 7725 l 2026 7695 l 1845 7695 l 1845 7755 l cp
clip
n 3000 7725 m 2998 7725 l 2993 7725 l 2984 7725 l 2970 7725 l 2951 7725 l
 2926 7725 l 2897 7725 l 2863 7725 l 2825 7725 l 2784 7725 l
 2741 7725 l 2698 7725 l 2654 7725 l 2612 7725 l 2571 7725 l
 2532 7725 l 2496 7725 l 2462 7725 l 2430 7725 l 2401 7725 l
 2374 7725 l 2349 7725 l 2325 7725 l 2297 7725 l 2270 7725 l
 2243 7725 l 2215 7725 l 2186 7725 l 2156 7725 l 2125 7725 l
 2093 7725 l 2061 7725 l 2029 7725 l 1998 7725 l 1969 7725 l
 1943 7725 l 1921 7725 l 1904 7725 l 1875 7725 l gs col0 s gr gr

% arrowhead
n 2026 7755 m 1905 7725 l 2026 7695 l 2026 7725 l 2026 7755 l  cp gs 0.00 setgray ef gr  col0 s
% Polyline
gs  clippath
2029 8205 m 1908 8175 l 2029 8145 l 1848 8145 l 1848 8205 l cp
clip
n 3000 8175 m 2998 8175 l 2993 8175 l 2984 8175 l 2970 8175 l 2951 8175 l
 2926 8175 l 2897 8175 l 2863 8175 l 2825 8175 l 2784 8175 l
 2741 8175 l 2698 8175 l 2654 8175 l 2612 8175 l 2571 8175 l
 2532 8175 l 2496 8175 l 2462 8175 l 2430 8175 l 2401 8175 l
 2374 8175 l 2349 8175 l 2325 8175 l 2297 8175 l 2270 8175 l
 2243 8175 l 2215 8175 l 2187 8175 l 2157 8175 l 2126 8175 l
 2094 8175 l 2062 8175 l 2030 8175 l 2000 8175 l 1971 8175 l
 1946 8175 l 1924 8175 l 1906 8175 l 1878 8175 l gs col0 s gr gr

% arrowhead
n 2029 8205 m 1908 8175 l 2029 8145 l 2029 8175 l 2029 8205 l  cp gs 0.00 setgray ef gr  col0 s
% Polyline
gs  clippath
2811 7033 m 2903 7053 l 2820 7099 l 2960 7079 l 2950 7012 l cp
clip
n 1875 6975 m 1877 6976 l 1882 6978 l 1891 6982 l 1904 6987 l 1921 6995 l
 1943 7004 l 1969 7014 l 1998 7026 l 2028 7038 l 2060 7050 l
 2092 7062 l 2123 7073 l 2154 7084 l 2183 7093 l 2211 7101 l
 2238 7107 l 2264 7112 l 2290 7116 l 2316 7118 l 2338 7119 l
 2362 7120 l 2386 7119 l 2413 7118 l 2442 7116 l 2472 7113 l
 2505 7110 l 2540 7106 l 2577 7101 l 2615 7096 l 2654 7091 l
 2693 7085 l 2732 7080 l 2768 7074 l 2802 7069 l 2833 7065 l
 2859 7060 l 2881 7057 l 2898 7054 l 2925 7050 l gs col0 s gr gr

% arrowhead
n 2811 7033 m 2903 7053 l 2820 7099 l 2816 7066 l 2811 7033 l  cp gs 0.00 setgray ef gr  col0 s
% Polyline
n 2925 6900 m 2923 6900 l 2918 6899 l 2909 6897 l 2895 6895 l 2876 6892 l
 2852 6888 l 2824 6884 l 2792 6879 l 2757 6873 l 2719 6868 l
 2681 6862 l 2643 6857 l 2606 6852 l 2571 6848 l 2537 6844 l
 2505 6841 l 2475 6839 l 2447 6838 l 2421 6837 l 2396 6838 l
 2372 6839 l 2348 6841 l 2324 6844 l 2299 6848 l 2273 6853 l
 2246 6860 l 2217 6867 l 2186 6875 l 2154 6884 l 2121 6894 l
 2088 6905 l 2054 6915 l 2022 6926 l 1991 6936 l 1963 6945 l
 1938 6954 l 1917 6961 l 1901 6966 l 1889 6970 l 1881 6973 l
 1877 6974 l 1875 6975 l gs col0 s gr 
% Polyline
gs  clippath
1951 3555 m 1830 3525 l 1951 3495 l 1770 3495 l 1770 3555 l cp
clip
n 2925 3525 m 2923 3525 l 2919 3525 l 2911 3525 l 2899 3525 l 2883 3525 l
 2862 3525 l 2836 3525 l 2807 3525 l 2774 3525 l 2738 3525 l
 2701 3525 l 2663 3525 l 2625 3525 l 2588 3525 l 2552 3525 l
 2518 3525 l 2485 3525 l 2454 3525 l 2426 3525 l 2399 3525 l
 2373 3525 l 2349 3525 l 2325 3525 l 2299 3525 l 2274 3525 l
 2247 3525 l 2220 3525 l 2191 3525 l 2160 3525 l 2128 3525 l
 2094 3525 l 2059 3525 l 2024 3525 l 1989 3525 l 1954 3525 l
 1922 3525 l 1892 3525 l 1866 3525 l 1845 3525 l 1827 3525 l
 1800 3525 l gs col0 s gr gr

% arrowhead
n 1951 3555 m 1830 3525 l 1951 3495 l 1951 3525 l 1951 3555 l  cp gs 0.00 setgray ef gr  col0 s
% Polyline
gs  clippath
2861 2934 m 2970 2992 l 2846 2993 l 3022 3036 l 3036 2978 l cp
clip
n 1800 2925 m 1802 2925 l 1806 2924 l 1815 2922 l 1827 2919 l 1844 2915 l
 1865 2911 l 1890 2905 l 1919 2899 l 1951 2893 l 1985 2886 l
 2020 2880 l 2055 2873 l 2089 2867 l 2123 2862 l 2155 2858 l
 2186 2854 l 2215 2851 l 2243 2849 l 2271 2849 l 2298 2849 l
 2325 2850 l 2348 2852 l 2373 2854 l 2398 2858 l 2425 2862 l
 2454 2867 l 2485 2873 l 2517 2880 l 2552 2887 l 2589 2896 l
 2626 2905 l 2666 2914 l 2705 2924 l 2745 2934 l 2784 2944 l
 2821 2953 l 2857 2962 l 2889 2971 l 2917 2978 l 2941 2984 l
 2961 2990 l 2976 2994 l 3000 3000 l gs col0 s gr gr

% arrowhead
n 2861 2934 m 2970 2992 l 2846 2993 l 2854 2963 l 2861 2934 l  cp gs 0.00 setgray ef gr  col0 s
% Polyline
gs  clippath
3875 7890 m 3778 7812 l 3900 7836 l 3735 7760 l 3710 7815 l cp
clip
n 5025 7875 m 5023 7875 l 5019 7876 l 5012 7878 l 5001 7881 l 4985 7885 l
 4965 7890 l 4940 7896 l 4911 7903 l 4878 7911 l 4842 7920 l
 4803 7929 l 4763 7938 l 4722 7948 l 4681 7957 l 4641 7965 l
 4602 7973 l 4564 7981 l 4528 7987 l 4494 7993 l 4462 7997 l
 4432 8000 l 4404 8003 l 4377 8004 l 4352 8004 l 4327 8003 l
 4301 8001 l 4274 7997 l 4247 7993 l 4219 7986 l 4190 7978 l
 4160 7969 l 4128 7959 l 4095 7947 l 4061 7934 l 4026 7920 l
 3991 7906 l 3956 7891 l 3921 7876 l 3889 7862 l 3858 7849 l
 3831 7837 l 3808 7826 l 3789 7818 l 3774 7811 l 3750 7800 l gs col0 s gr gr

% arrowhead
n 3875 7890 m 3778 7812 l 3900 7836 l 3887 7863 l 3875 7890 l  cp gs 0.00 setgray ef gr  col0 s
% Polyline
gs  clippath
4872 7364 m 4995 7358 l 4889 7422 l 5062 7370 l 5045 7313 l cp
clip
n 3750 7350 m 3752 7351 l 3756 7352 l 3764 7354 l 3776 7358 l 3793 7363 l
 3815 7369 l 3841 7376 l 3871 7385 l 3905 7394 l 3942 7404 l
 3980 7415 l 4019 7425 l 4058 7435 l 4097 7445 l 4134 7454 l
 4170 7462 l 4205 7469 l 4237 7475 l 4268 7480 l 4297 7484 l
 4325 7487 l 4352 7488 l 4379 7489 l 4406 7488 l 4433 7487 l
 4461 7484 l 4491 7480 l 4522 7475 l 4556 7469 l 4591 7462 l
 4628 7454 l 4667 7445 l 4706 7435 l 4747 7425 l 4787 7415 l
 4827 7404 l 4864 7394 l 4899 7385 l 4931 7376 l 4958 7369 l
 4980 7363 l 4998 7358 l 5025 7350 l gs col0 s gr gr

% arrowhead
n 4872 7364 m 4995 7358 l 4889 7422 l 4880 7393 l 4872 7364 l  cp gs 0.00 setgray ef gr  col0 s
% Polyline
gs  clippath
3829 6291 m 3704 6292 l 3813 6233 l 3638 6279 l 3654 6337 l cp
clip
n 5025 6225 m 5023 6225 l 5020 6224 l 5013 6223 l 5002 6221 l 4987 6219 l
 4968 6216 l 4945 6212 l 4917 6208 l 4886 6203 l 4852 6197 l
 4816 6192 l 4778 6186 l 4739 6181 l 4700 6175 l 4661 6170 l
 4624 6165 l 4587 6161 l 4553 6157 l 4520 6154 l 4488 6152 l
 4458 6150 l 4430 6149 l 4403 6148 l 4376 6149 l 4350 6150 l
 4324 6152 l 4297 6154 l 4270 6158 l 4242 6162 l 4212 6167 l
 4180 6173 l 4147 6180 l 4113 6187 l 4076 6196 l 4039 6205 l
 4000 6214 l 3961 6224 l 3923 6234 l 3884 6244 l 3848 6253 l
 3814 6262 l 3783 6271 l 3755 6278 l 3732 6284 l 3713 6290 l
 3698 6294 l 3675 6300 l gs col0 s gr gr

% arrowhead
n 3829 6291 m 3704 6292 l 3813 6233 l 3821 6262 l 3829 6291 l  cp gs 0.00 setgray ef gr  col0 s
% Polyline
gs  clippath
4879 5576 m 4994 5621 l 4871 5635 l 5051 5659 l 5059 5599 l cp
clip
n 3675 5625 m 3677 5625 l 3680 5624 l 3687 5623 l 3698 5622 l 3713 5620 l
 3732 5617 l 3755 5613 l 3783 5609 l 3814 5605 l 3848 5600 l
 3884 5595 l 3923 5590 l 3961 5585 l 4000 5580 l 4039 5575 l
 4076 5570 l 4113 5566 l 4147 5562 l 4180 5559 l 4212 5556 l
 4242 5554 l 4270 5552 l 4297 5551 l 4324 5550 l 4350 5550 l
 4376 5550 l 4403 5551 l 4430 5552 l 4458 5554 l 4488 5556 l
 4520 5559 l 4553 5562 l 4587 5566 l 4624 5570 l 4661 5575 l
 4700 5580 l 4739 5585 l 4778 5590 l 4816 5595 l 4852 5600 l
 4886 5605 l 4917 5609 l 4945 5613 l 4968 5617 l 4987 5620 l
 5002 5622 l 5025 5625 l gs col0 s gr gr

% arrowhead
n 4879 5576 m 4994 5621 l 4871 5635 l 4875 5605 l 4879 5576 l  cp gs 0.00 setgray ef gr  col0 s
% Polyline
gs  clippath
3799 3973 m 3685 3923 l 3809 3914 l 3631 3883 l 3620 3942 l cp
clip
n 4950 3900 m 4948 3901 l 4944 3902 l 4936 3905 l 4925 3909 l 4909 3915 l
 4889 3922 l 4865 3930 l 4837 3939 l 4807 3949 l 4775 3960 l
 4742 3970 l 4708 3980 l 4675 3990 l 4642 3999 l 4611 4007 l
 4580 4014 l 4551 4019 l 4522 4024 l 4493 4027 l 4465 4029 l
 4436 4030 l 4412 4030 l 4388 4029 l 4362 4028 l 4334 4026 l
 4304 4023 l 4273 4020 l 4239 4015 l 4203 4011 l 4165 4005 l
 4125 3999 l 4084 3993 l 4041 3986 l 3998 3978 l 3955 3971 l
 3912 3964 l 3871 3957 l 3832 3950 l 3796 3944 l 3764 3938 l
 3736 3933 l 3712 3928 l 3693 3925 l 3678 3922 l 3655 3918 l gs col0 s gr gr

% arrowhead
n 3799 3973 m 3685 3923 l 3809 3914 l 3804 3944 l 3799 3973 l  cp gs 0.00 setgray ef gr  col0 s
% Polyline
gs  clippath
4806 3320 m 4919 3369 l 4796 3379 l 4974 3410 l 4985 3351 l cp
clip
n 3675 3375 m 3677 3375 l 3681 3374 l 3688 3373 l 3700 3372 l 3715 3370 l
 3736 3367 l 3761 3364 l 3791 3360 l 3824 3356 l 3860 3352 l
 3899 3347 l 3940 3342 l 3981 3337 l 4022 3332 l 4063 3328 l
 4103 3323 l 4141 3319 l 4177 3316 l 4211 3313 l 4243 3310 l
 4273 3308 l 4302 3306 l 4329 3305 l 4354 3304 l 4379 3304 l
 4408 3304 l 4437 3305 l 4466 3307 l 4497 3309 l 4529 3312 l
 4562 3316 l 4597 3320 l 4634 3325 l 4671 3330 l 4709 3336 l
 4747 3342 l 4784 3348 l 4819 3353 l 4851 3358 l 4879 3363 l
 4902 3367 l 4921 3370 l 4950 3375 l gs col0 s gr gr

% arrowhead
n 4806 3320 m 4919 3369 l 4796 3379 l 4801 3349 l 4806 3320 l  cp gs 0.00 setgray ef gr  col0 s
% Polyline
gs  clippath
6987 3457 m 7095 3516 l 6971 3515 l 7146 3562 l 7162 3504 l cp
clip
n 5700 3525 m 5702 3525 l 5705 3523 l 5712 3521 l 5722 3518 l 5737 3514 l
 5756 3508 l 5779 3502 l 5806 3494 l 5837 3485 l 5870 3475 l
 5906 3465 l 5944 3455 l 5982 3445 l 6021 3434 l 6059 3425 l
 6096 3416 l 6132 3407 l 6167 3400 l 6201 3393 l 6232 3387 l
 6263 3383 l 6292 3379 l 6320 3377 l 6348 3375 l 6375 3375 l
 6403 3375 l 6431 3377 l 6460 3379 l 6491 3383 l 6524 3387 l
 6558 3393 l 6595 3400 l 6634 3407 l 6674 3416 l 6716 3425 l
 6759 3434 l 6803 3445 l 6846 3455 l 6889 3465 l 6930 3475 l
 6968 3485 l 7003 3494 l 7035 3502 l 7061 3508 l 7083 3514 l
 7099 3518 l 7125 3525 l gs col0 s gr gr

% arrowhead
n 6987 3457 m 7095 3516 l 6971 3515 l 6979 3486 l 6987 3457 l  cp gs 0.00 setgray ef gr  col0 s
% Polyline
gs  clippath
5843 4032 m 5730 3980 l 5854 3972 l 5676 3940 l 5665 3999 l cp
clip
n 7125 3975 m 7123 3975 l 7119 3976 l 7111 3978 l 7099 3981 l 7082 3985 l
 7060 3990 l 7034 3996 l 7004 4003 l 6970 4010 l 6933 4018 l
 6895 4026 l 6855 4035 l 6816 4043 l 6776 4050 l 6738 4057 l
 6701 4064 l 6666 4069 l 6632 4074 l 6599 4078 l 6568 4081 l
 6538 4083 l 6509 4085 l 6479 4085 l 6453 4085 l 6427 4084 l
 6399 4082 l 6370 4080 l 6340 4077 l 6308 4074 l 6273 4069 l
 6237 4065 l 6199 4059 l 6160 4053 l 6119 4047 l 6077 4040 l
 6035 4033 l 5992 4026 l 5951 4019 l 5911 4012 l 5873 4006 l
 5838 4000 l 5806 3994 l 5779 3989 l 5755 3985 l 5736 3982 l
 5722 3979 l 5700 3975 l gs col0 s gr gr

% arrowhead
n 5843 4032 m 5730 3980 l 5854 3972 l 5848 4002 l 5843 4032 l  cp gs 0.00 setgray ef gr  col0 s
% Polyline
gs  clippath
6983 5790 m 7094 5843 l 6971 5849 l 7148 5885 l 7160 5827 l cp
clip
n 5700 5850 m 5702 5849 l 5706 5848 l 5713 5845 l 5724 5842 l 5739 5836 l
 5759 5830 l 5782 5822 l 5810 5812 l 5841 5802 l 5874 5791 l
 5909 5780 l 5945 5769 l 5981 5758 l 6017 5747 l 6052 5738 l
 6087 5729 l 6120 5721 l 6152 5715 l 6182 5709 l 6212 5705 l
 6242 5702 l 6271 5701 l 6300 5700 l 6326 5700 l 6353 5702 l
 6381 5704 l 6411 5707 l 6442 5711 l 6476 5715 l 6512 5721 l
 6550 5728 l 6590 5735 l 6632 5743 l 6676 5752 l 6721 5761 l
 6766 5770 l 6811 5780 l 6856 5790 l 6899 5799 l 6939 5808 l
 6977 5816 l 7011 5824 l 7041 5831 l 7066 5836 l 7086 5841 l
 7101 5845 l 7125 5850 l gs col0 s gr gr

% arrowhead
n 6983 5790 m 7094 5843 l 6971 5849 l 6977 5819 l 6983 5790 l  cp gs 0.00 setgray ef gr  col0 s
% Polyline
gs  clippath
5836 6373 m 5729 6309 l 5853 6315 l 5680 6263 l 5663 6320 l cp
clip
n 7050 6300 m 7048 6300 l 7045 6302 l 7038 6304 l 7027 6307 l 7012 6311 l
 6993 6317 l 6970 6323 l 6942 6331 l 6911 6340 l 6877 6350 l
 6841 6360 l 6803 6370 l 6764 6380 l 6725 6391 l 6686 6400 l
 6649 6409 l 6612 6418 l 6578 6425 l 6545 6432 l 6513 6438 l
 6483 6442 l 6455 6446 l 6428 6448 l 6401 6450 l 6375 6450 l
 6349 6450 l 6322 6448 l 6295 6446 l 6267 6442 l 6237 6438 l
 6205 6432 l 6172 6425 l 6138 6418 l 6101 6409 l 6064 6400 l
 6025 6391 l 5986 6380 l 5948 6370 l 5909 6360 l 5873 6350 l
 5839 6340 l 5808 6331 l 5780 6323 l 5757 6317 l 5738 6311 l
 5723 6307 l 5700 6300 l gs col0 s gr gr

% arrowhead
n 5836 6373 m 5729 6309 l 5853 6315 l 5844 6344 l 5836 6373 l  cp gs 0.00 setgray ef gr  col0 s
% Polyline
gs  clippath
6988 7355 m 7095 7416 l 6972 7413 l 7146 7462 l 7162 7404 l cp
clip
n 5700 7425 m 5702 7424 l 5706 7423 l 5713 7421 l 5724 7418 l 5739 7413 l
 5758 7408 l 5783 7400 l 5811 7392 l 5843 7383 l 5878 7373 l
 5916 7362 l 5955 7351 l 5995 7340 l 6035 7330 l 6075 7319 l
 6114 7310 l 6151 7301 l 6187 7293 l 6222 7286 l 6254 7280 l
 6285 7275 l 6315 7272 l 6344 7269 l 6372 7267 l 6399 7267 l
 6427 7267 l 6455 7269 l 6484 7272 l 6514 7275 l 6546 7280 l
 6580 7286 l 6615 7293 l 6652 7301 l 6691 7310 l 6732 7319 l
 6773 7330 l 6816 7340 l 6857 7351 l 6899 7362 l 6938 7373 l
 6975 7383 l 7008 7392 l 7038 7400 l 7064 7408 l 7084 7413 l
 7100 7418 l 7125 7425 l gs col0 s gr gr

% arrowhead
n 6988 7355 m 7095 7416 l 6972 7413 l 6980 7384 l 6988 7355 l  cp gs 0.00 setgray ef gr  col0 s
% Polyline
gs  clippath
5838 7868 m 5729 7808 l 5854 7810 l 5679 7763 l 5663 7821 l cp
clip
n 7050 7800 m 7048 7801 l 7044 7802 l 7037 7805 l 7026 7808 l 7010 7814 l
 6990 7820 l 6966 7828 l 6938 7838 l 6907 7848 l 6873 7859 l
 6838 7870 l 6801 7881 l 6764 7892 l 6728 7903 l 6693 7912 l
 6658 7921 l 6625 7929 l 6594 7935 l 6563 7941 l 6534 7945 l
 6506 7948 l 6478 7949 l 6450 7950 l 6424 7950 l 6397 7948 l
 6368 7946 l 6338 7942 l 6306 7938 l 6271 7932 l 6235 7925 l
 6197 7918 l 6156 7909 l 6114 7900 l 6071 7891 l 6027 7880 l
 5983 7870 l 5939 7860 l 5898 7850 l 5859 7840 l 5823 7831 l
 5792 7823 l 5765 7817 l 5743 7811 l 5726 7807 l 5700 7800 l gs col0 s gr gr

% arrowhead
n 5838 7868 m 5729 7808 l 5854 7810 l 5846 7839 l 5838 7868 l  cp gs 0.00 setgray ef gr  col0 s
/Courier ff 150.00 scf sf
2325 8475 m
gs 1 -1 sc (::drag_end) dup sw pop 2 div neg 0 rm  col0 sh gr
/Courier ff 150.00 scf sf
2400 7950 m
gs 1 -1 sc (::drag_data_delete) dup sw pop 2 div neg 0 rm  col0 sh gr
/Courier ff 150.00 scf sf
2400 6600 m
gs 1 -1 sc (::drag_data_get) dup sw pop 2 div neg 0 rm  col0 sh gr
/Courier ff 150.00 scf sf
2325 3825 m
gs 1 -1 sc (::drag_begin) dup sw pop 2 div neg 0 rm  col0 sh gr
/Courier ff 150.00 scf sf
2400 2625 m
gs 1 -1 sc (gtk_drag_begin\(\)) dup sw pop 2 div neg 0 rm  col0 sh gr
/Helvetica ff 180.00 scf sf
1425 2250 m
gs 1 -1 sc (Application) col0 sh gr
/Helvetica ff 180.00 scf sf
3225 2250 m
gs 1 -1 sc (GTK+) col0 sh gr
/Courier ff 150.00 scf sf
4350 5400 m
gs 1 -1 sc (XdndDrop) dup sw pop 2 div neg 0 rm  col0 sh gr
/Courier ff 150.00 scf sf
4379 4253 m
gs 1 -1 sc (XdndStatus) dup sw pop 2 div neg 0 rm  col0 sh gr
/Courier ff 150.00 scf sf
4379 8270 m
gs 1 -1 sc (XdndFinish) dup sw pop 2 div neg 0 rm  col0 sh gr
/Courier ff 150.00 scf sf
4350 3150 m
gs 1 -1 sc (XdndPosition) dup sw pop 2 div neg 0 rm  col0 sh gr
/Courier ff 150.00 scf sf
6450 8175 m
gs 1 -1 sc (gtk_drag_finish\(\)) dup sw pop 2 div neg 0 rm  col0 sh gr
/Courier ff 150.00 scf sf
6375 7125 m
gs 1 -1 sc (::drag_data_received) dup sw pop 2 div neg 0 rm  col0 sh gr
/Courier ff 150.00 scf sf
6554 6708 m
gs 1 -1 sc (gtk_drag_finish\(\)) dup sw pop 2 div neg 0 rm  col0 sh gr
/Courier ff 150.00 scf sf
6375 5550 m
gs 1 -1 sc (::drag_drop) dup sw pop 2 div neg 0 rm  col0 sh gr
/Courier ff 150.00 scf sf
6450 4350 m
gs 1 -1 sc (gtk_drag_status\(\)) dup sw pop 2 div neg 0 rm  col0 sh gr
/Courier ff 150.00 scf sf
6424 3192 m
gs 1 -1 sc (::drag_motion) dup sw pop 2 div neg 0 rm  col0 sh gr
/Helvetica ff 180.00 scf sf
6675 2250 m
gs 1 -1 sc (Application) col0 sh gr
/Helvetica ff 150.00 scf sf
4425 6075 m
gs 1 -1 sc (\(convert selection\)) dup sw pop 2 div neg 0 rm  col0 sh gr
/Helvetica ff 150.00 scf sf
4350 7650 m
gs 1 -1 sc (\(selection data\)) dup sw pop 2 div neg 0 rm  col0 sh gr
/Helvetica ff 180.00 scf sf
2100 1800 m
gs 1 -1 sc (Source) col0 sh gr
/Helvetica ff 180.00 scf sf
5175 2250 m
gs 1 -1 sc (GTK+) col0 sh gr
/Helvetica ff 180.00 scf sf
6150 1875 m
gs 1 -1 sc (Target) col0 sh gr
$F2psEnd
rs
