%!PS-Adobe-2.0 EPSF-2.0
%%Title: extents.eps
%%Creator: fig2dev Version 3.2 Patchlevel 1
%%CreationDate: Sun Nov 14 18:09:20 1999
%%For: otaylor@fresnel.labs.redhat.com (Owen Taylor,,547-0012 x249)
%%Orientation: Portrait
%%BoundingBox: 0 0 359 107
%%Pages: 0
%%BeginSetup
%%EndSetup
%%Magnification: 1.0000
%%EndComments
/$F2psDict 200 dict def
$F2psDict begin
$F2psDict /mtrx matrix put
/col-1 {0 setgray} bind def
/col0 {0.000 0.000 0.000 srgb} bind def
/col1 {0.000 0.000 1.000 srgb} bind def
/col2 {0.000 1.000 0.000 srgb} bind def
/col3 {0.000 1.000 1.000 srgb} bind def
/col4 {1.000 0.000 0.000 srgb} bind def
/col5 {1.000 0.000 1.000 srgb} bind def
/col6 {1.000 1.000 0.000 srgb} bind def
/col7 {1.000 1.000 1.000 srgb} bind def
/col8 {0.000 0.000 0.560 srgb} bind def
/col9 {0.000 0.000 0.690 srgb} bind def
/col10 {0.000 0.000 0.820 srgb} bind def
/col11 {0.530 0.810 1.000 srgb} bind def
/col12 {0.000 0.560 0.000 srgb} bind def
/col13 {0.000 0.690 0.000 srgb} bind def
/col14 {0.000 0.820 0.000 srgb} bind def
/col15 {0.000 0.560 0.560 srgb} bind def
/col16 {0.000 0.690 0.690 srgb} bind def
/col17 {0.000 0.820 0.820 srgb} bind def
/col18 {0.560 0.000 0.000 srgb} bind def
/col19 {0.690 0.000 0.000 srgb} bind def
/col20 {0.820 0.000 0.000 srgb} bind def
/col21 {0.560 0.000 0.560 srgb} bind def
/col22 {0.690 0.000 0.690 srgb} bind def
/col23 {0.820 0.000 0.820 srgb} bind def
/col24 {0.500 0.190 0.000 srgb} bind def
/col25 {0.630 0.250 0.000 srgb} bind def
/col26 {0.750 0.380 0.000 srgb} bind def
/col27 {1.000 0.500 0.500 srgb} bind def
/col28 {1.000 0.630 0.630 srgb} bind def
/col29 {1.000 0.750 0.750 srgb} bind def
/col30 {1.000 0.880 0.880 srgb} bind def
/col31 {1.000 0.840 0.000 srgb} bind def

end
save
-34.0 406.0 translate
1 -1 scale

/cp {closepath} bind def
/ef {eofill} bind def
/gr {grestore} bind def
/gs {gsave} bind def
/sa {save} bind def
/rs {restore} bind def
/l {lineto} bind def
/m {moveto} bind def
/rm {rmoveto} bind def
/n {newpath} bind def
/s {stroke} bind def
/sh {show} bind def
/slc {setlinecap} bind def
/slj {setlinejoin} bind def
/slw {setlinewidth} bind def
/srgb {setrgbcolor} bind def
/rot {rotate} bind def
/sc {scale} bind def
/sd {setdash} bind def
/ff {findfont} bind def
/sf {setfont} bind def
/scf {scalefont} bind def
/sw {stringwidth} bind def
/tr {translate} bind def
/tnt {dup dup currentrgbcolor
  4 -2 roll dup 1 exch sub 3 -1 roll mul add
  4 -2 roll dup 1 exch sub 3 -1 roll mul add
  4 -2 roll dup 1 exch sub 3 -1 roll mul add srgb}
  bind def
/shd {dup dup currentrgbcolor 4 -2 roll mul 4 -2 roll mul
  4 -2 roll mul srgb} bind def
/$F2psBegin {$F2psDict begin /$F2psEnteredState save def} def
/$F2psEnd {$F2psEnteredState restore end} def
%%EndProlog

$F2psBegin
10 setmiterlimit
n -1000 7753 m -1000 -1000 l 7536 -1000 l 7536 7753 l cp clip
 0.06000 0.06000 sc
% Polyline
7.500 slw
 [15 45] 45 sd
n 1937 5053 m 1937 6236 l gs col0 s gr  [] 0 sd
% Polyline
 [15 45] 45 sd
n 6514 6030 m 1474 6030 l gs col0 s gr  [] 0 sd
% Polyline
 [15 45] 45 sd
n 1474 5876 m 6514 5876 l gs col0 s gr  [] 0 sd
% Polyline
 [15 45] 45 sd
n 1474 5361 m 6462 5361 l gs col0 s gr  [] 0 sd
% Polyline
 [15 45] 45 sd
n 6411 5001 m 6411 5876 l gs col0 s gr  [] 0 sd
% Polyline
 [15 45] 45 sd
n 1783 5361 m 1783 6236 l gs col0 s gr  [] 0 sd
% Polyline
15.000 slw
gs  clippath
2027 6214 m 1937 6184 l 2027 6154 l 1907 6154 l 1907 6214 l cp
clip
n 3582 6184 m 1937 6184 l gs col0 s gr gr

% arrowhead
7.500 slw
n 2027 6214 m 1937 6184 l 2027 6154 l 2027 6184 l 2027 6214 l  cp gs 0.00 setgray ef gr  col0 s
% Polyline
15.000 slw
gs  clippath
1847 6154 m 1937 6184 l 1847 6214 l 1967 6214 l 1967 6154 l cp
1873 6214 m 1783 6184 l 1873 6154 l 1753 6154 l 1753 6214 l cp
clip
n 1783 6184 m 1937 6184 l gs col0 s gr gr

% arrowhead
7.500 slw
n 1873 6214 m 1783 6184 l 1873 6154 l 1873 6184 l 1873 6214 l  cp gs 0.00 setgray ef gr  col0 s
% arrowhead
n 1847 6154 m 1937 6184 l 1847 6214 l 1847 6184 l 1847 6154 l  cp gs 0.00 setgray ef gr  col0 s
% Polyline
15.000 slw
gs  clippath
1556 5940 m 1526 6030 l 1496 5940 l 1496 6060 l 1556 6060 l cp
1496 5966 m 1526 5876 l 1556 5966 l 1556 5846 l 1496 5846 l cp
clip
n 1526 5876 m 1526 6030 l gs col0 s gr gr

% arrowhead
7.500 slw
n 1496 5966 m 1526 5876 l 1556 5966 l 1526 5966 l 1496 5966 l  cp gs 0.00 setgray ef gr  col0 s
% arrowhead
n 1556 5940 m 1526 6030 l 1496 5940 l 1526 5940 l 1556 5940 l  cp gs 0.00 setgray ef gr  col0 s
% Polyline
15.000 slw
gs  clippath
1556 5786 m 1526 5876 l 1496 5786 l 1496 5906 l 1556 5906 l cp
clip
n 1526 5721 m 1526 5876 l gs col0 s gr gr

% arrowhead
7.500 slw
n 1556 5786 m 1526 5876 l 1496 5786 l 1526 5786 l 1556 5786 l  cp gs 0.00 setgray ef gr  col0 s
% Polyline
15.000 slw
gs  clippath
1496 5451 m 1526 5361 l 1556 5451 l 1556 5331 l 1496 5331 l cp
clip
n 1526 5516 m 1526 5361 l gs col0 s gr gr

% arrowhead
7.500 slw
n 1496 5451 m 1526 5361 l 1556 5451 l 1526 5451 l 1496 5451 l  cp gs 0.00 setgray ef gr  col0 s
% Polyline
 [15 45] 45 sd
n 6514 5361 m 6514 6184 l gs col0 s gr  [] 0 sd
% Polyline
15.000 slw
gs  clippath
6321 5126 m 6411 5156 l 6321 5186 l 6441 5186 l 6441 5126 l cp
clip
n 4148 5156 m 6411 5156 l gs col0 s gr gr

% arrowhead
7.500 slw
n 6321 5126 m 6411 5156 l 6321 5186 l 6321 5156 l 6321 5126 l  cp gs 0.00 setgray ef gr  col0 s
% Polyline
15.000 slw
gs  clippath
6424 6154 m 6514 6184 l 6424 6214 l 6544 6214 l 6544 6154 l cp
clip
n 4354 6184 m 6514 6184 l gs col0 s gr gr

% arrowhead
7.500 slw
n 6424 6154 m 6514 6184 l 6424 6214 l 6424 6184 l 6424 6154 l  cp gs 0.00 setgray ef gr  col0 s
% Polyline
15.000 slw
gs  clippath
2027 5186 m 1937 5156 l 2027 5126 l 1907 5126 l 1907 5186 l cp
clip
n 3582 5156 m 1937 5156 l gs col0 s gr gr

% arrowhead
7.500 slw
n 2027 5186 m 1937 5156 l 2027 5126 l 2027 5156 l 2027 5186 l  cp gs 0.00 setgray ef gr  col0 s
% Polyline
15.000 slw
gs  clippath
1399 5921 m 1474 5979 l 1379 5977 l 1492 6017 l 1512 5961 l cp
clip
n 1114 6030 m 1117 6027 l 1124 6021 l 1135 6012 l 1150 5999 l 1168 5984 l
 1186 5970 l 1205 5956 l 1222 5945 l 1238 5936 l 1253 5930 l
 1268 5927 l 1281 5926 l 1296 5927 l 1312 5929 l 1331 5933 l
 1351 5939 l 1373 5945 l 1396 5952 l 1418 5959 l 1437 5966 l
 1474 5979 l gs col0 s gr gr

% arrowhead
7.500 slw
n 1399 5921 m 1474 5979 l 1379 5977 l 1389 5949 l 1399 5921 l  cp gs 0.00 setgray ef gr  col0 s
% Polyline
15.000 slw
gs  clippath
1828 6362 m 1886 6287 l 1885 6382 l 1924 6269 l 1868 6249 l cp
clip
n 1680 6493 m 1681 6493 l 1684 6491 l 1692 6486 l 1705 6478 l 1722 6467 l
 1742 6455 l 1762 6442 l 1781 6430 l 1798 6418 l 1813 6408 l
 1825 6399 l 1834 6390 l 1843 6380 l 1851 6368 l 1859 6355 l
 1866 6340 l 1872 6325 l 1878 6310 l 1886 6287 l gs col0 s gr gr

% arrowhead
7.500 slw
n 1828 6362 m 1886 6287 l 1885 6382 l 1856 6372 l 1828 6362 l  cp gs 0.00 setgray ef gr  col0 s
/Times-Italic ff 735.00 scf sf
1937 5876 m
gs 1 -1 sc (font Type proof) col0 sh gr
/Helvetica ff 180.00 scf sf
1577 6699 m
gs 1 -1 sc (lbearing) dup sw pop 2 div neg 0 rm  col0 sh gr
/Helvetica ff 180.00 scf sf
1474 5670 m
gs 1 -1 sc (ascent) dup sw pop 2 div neg 0 rm  col0 sh gr
/Helvetica ff 180.00 scf sf
909 6184 m
gs 1 -1 sc (descent) dup sw pop 2 div neg 0 rm  col0 sh gr
/Helvetica ff 180.00 scf sf
3872 5207 m
gs 1 -1 sc (width) dup sw pop 2 div neg 0 rm  col0 sh gr
/Helvetica ff 180.00 scf sf
3976 6233 m
gs 1 -1 sc (rbearing) dup sw pop 2 div neg 0 rm  col0 sh gr
$F2psEnd
rs
