%!PS-Adobe-2.0 EPSF-2.0
%%Title: gc-function.eps
%%Creator: fig2dev Version 3.2 Patchlevel 0-beta3
%%CreationDate: Sun Aug 30 14:59:52 1998
%%For: otaylor@huygens.redhat.com (Owen Taylor)
%%Orientation: Portrait
%%BoundingBox: 0 0 391 446
%%Pages: 0
%%BeginSetup
%%EndSetup
%%Magnification: 1.0000
%%EndComments
/$F2psDict 200 dict def
$F2psDict begin
$F2psDict /mtrx matrix put
/col-1 {0 setgray} bind def
/col0 {0.000 0.000 0.000 srgb} bind def
/col1 {0.000 0.000 1.000 srgb} bind def
/col2 {0.000 1.000 0.000 srgb} bind def
/col3 {0.000 1.000 1.000 srgb} bind def
/col4 {1.000 0.000 0.000 srgb} bind def
/col5 {1.000 0.000 1.000 srgb} bind def
/col6 {1.000 1.000 0.000 srgb} bind def
/col7 {1.000 1.000 1.000 srgb} bind def
/col8 {0.000 0.000 0.560 srgb} bind def
/col9 {0.000 0.000 0.690 srgb} bind def
/col10 {0.000 0.000 0.820 srgb} bind def
/col11 {0.530 0.810 1.000 srgb} bind def
/col12 {0.000 0.560 0.000 srgb} bind def
/col13 {0.000 0.690 0.000 srgb} bind def
/col14 {0.000 0.820 0.000 srgb} bind def
/col15 {0.000 0.560 0.560 srgb} bind def
/col16 {0.000 0.690 0.690 srgb} bind def
/col17 {0.000 0.820 0.820 srgb} bind def
/col18 {0.560 0.000 0.000 srgb} bind def
/col19 {0.690 0.000 0.000 srgb} bind def
/col20 {0.820 0.000 0.000 srgb} bind def
/col21 {0.560 0.000 0.560 srgb} bind def
/col22 {0.690 0.000 0.690 srgb} bind def
/col23 {0.820 0.000 0.820 srgb} bind def
/col24 {0.500 0.190 0.000 srgb} bind def
/col25 {0.630 0.250 0.000 srgb} bind def
/col26 {0.750 0.380 0.000 srgb} bind def
/col27 {1.000 0.500 0.500 srgb} bind def
/col28 {1.000 0.630 0.630 srgb} bind def
/col29 {1.000 0.750 0.750 srgb} bind def
/col30 {1.000 0.880 0.880 srgb} bind def
/col31 {1.000 0.840 0.000 srgb} bind def

end
save
-45.0 509.0 translate
1 -1 scale

/cp {closepath} bind def
/ef {eofill} bind def
/gr {grestore} bind def
/gs {gsave} bind def
/sa {save} bind def
/rs {restore} bind def
/l {lineto} bind def
/m {moveto} bind def
/rm {rmoveto} bind def
/n {newpath} bind def
/s {stroke} bind def
/sh {show} bind def
/slc {setlinecap} bind def
/slj {setlinejoin} bind def
/slw {setlinewidth} bind def
/srgb {setrgbcolor} bind def
/rot {rotate} bind def
/sc {scale} bind def
/sd {setdash} bind def
/ff {findfont} bind def
/sf {setfont} bind def
/scf {scalefont} bind def
/sw {stringwidth} bind def
/tr {translate} bind def
/tnt {dup dup currentrgbcolor
  4 -2 roll dup 1 exch sub 3 -1 roll mul add
  4 -2 roll dup 1 exch sub 3 -1 roll mul add
  4 -2 roll dup 1 exch sub 3 -1 roll mul add srgb}
  bind def
/shd {dup dup currentrgbcolor 4 -2 roll mul 4 -2 roll mul
  4 -2 roll mul srgb} bind def
/$F2psBegin {$F2psDict begin /$F2psEnteredState save def} def
/$F2psEnd {$F2psEnteredState restore end} def
%%EndProlog

$F2psBegin
10 setmiterlimit
n -1000 9475 m -1000 -1000 l 8253 -1000 l 8253 9475 l cp clip
 0.06000 0.06000 sc
% Polyline
15.000 slw
n 1050 2025 m 2250 2025 l 2250 2325 l 1050 2325 l cp gs 0.50 setgray ef gr gs col0 s gr 
% Polyline
n 1050 1575 m 2250 1575 l 2250 1875 l 1050 1875 l cp gs col7 1.00 shd ef gr gs col0 s gr 
% Polyline
n 1275 1350 m 1575 1350 l 1575 2550 l 1275 2550 l cp gs col7 1.00 shd ef gr gs col0 s gr 
% Polyline
n 1725 1350 m 2025 1350 l 2025 2550 l 1725 2550 l cp gs 0.50 setgray ef gr gs col0 s gr 
% Polyline
n 2700 2025 m 3900 2025 l 3900 2325 l 2700 2325 l cp gs 0.50 setgray ef gr gs col0 s gr 
% Polyline
n 2700 1575 m 3900 1575 l 3900 1875 l 2700 1875 l cp gs col7 1.00 shd ef gr gs col0 s gr 
% Polyline
n 2925 1350 m 3225 1350 l 3225 2550 l 2925 2550 l cp gs col7 1.00 shd ef gr gs col0 s gr 
% Polyline
n 3375 1350 m 3675 1350 l 3675 2550 l 3375 2550 l cp gs 0.50 setgray ef gr gs col0 s gr 
% Polyline
n 4350 2025 m 5550 2025 l 5550 2325 l 4350 2325 l cp gs 0.50 setgray ef gr gs col0 s gr 
% Polyline
n 4350 1575 m 5550 1575 l 5550 1875 l 4350 1875 l cp gs col7 1.00 shd ef gr gs col0 s gr 
% Polyline
n 4575 1350 m 4875 1350 l 4875 2550 l 4575 2550 l cp gs col7 1.00 shd ef gr gs col0 s gr 
% Polyline
n 5025 1350 m 5325 1350 l 5325 2550 l 5025 2550 l cp gs 0.50 setgray ef gr gs col0 s gr 
% Polyline
n 6000 2025 m 7200 2025 l 7200 2325 l 6000 2325 l cp gs 0.50 setgray ef gr gs col0 s gr 
% Polyline
n 6000 1575 m 7200 1575 l 7200 1875 l 6000 1875 l cp gs col7 1.00 shd ef gr gs col0 s gr 
% Polyline
n 6225 1350 m 6525 1350 l 6525 2550 l 6225 2550 l cp gs col7 1.00 shd ef gr gs col0 s gr 
% Polyline
n 6675 1350 m 6975 1350 l 6975 2550 l 6675 2550 l cp gs 0.50 setgray ef gr gs col0 s gr 
% Polyline
n 6000 3900 m 7200 3900 l 7200 4200 l 6000 4200 l cp gs 0.50 setgray ef gr gs col0 s gr 
% Polyline
n 6000 3450 m 7200 3450 l 7200 3750 l 6000 3750 l cp gs col7 1.00 shd ef gr gs col0 s gr 
% Polyline
n 6225 3225 m 6525 3225 l 6525 4425 l 6225 4425 l cp gs col7 1.00 shd ef gr gs col0 s gr 
% Polyline
n 6675 3225 m 6975 3225 l 6975 4425 l 6675 4425 l cp gs 0.50 setgray ef gr gs col0 s gr 
% Polyline
n 2700 3900 m 3900 3900 l 3900 4200 l 2700 4200 l cp gs 0.50 setgray ef gr gs col0 s gr 
% Polyline
n 2700 3450 m 3900 3450 l 3900 3750 l 2700 3750 l cp gs col7 1.00 shd ef gr gs col0 s gr 
% Polyline
n 2925 3225 m 3225 3225 l 3225 4425 l 2925 4425 l cp gs col7 1.00 shd ef gr gs col0 s gr 
% Polyline
n 3375 3225 m 3675 3225 l 3675 4425 l 3375 4425 l cp gs 0.50 setgray ef gr gs col0 s gr 
% Polyline
n 1050 3900 m 2250 3900 l 2250 4200 l 1050 4200 l cp gs 0.50 setgray ef gr gs col0 s gr 
% Polyline
n 1050 3450 m 2250 3450 l 2250 3750 l 1050 3750 l cp gs col7 1.00 shd ef gr gs col0 s gr 
% Polyline
n 1275 3225 m 1575 3225 l 1575 4425 l 1275 4425 l cp gs col7 1.00 shd ef gr gs col0 s gr 
% Polyline
n 1725 3225 m 2025 3225 l 2025 4425 l 1725 4425 l cp gs 0.50 setgray ef gr gs col0 s gr 
% Polyline
n 1050 5775 m 2250 5775 l 2250 6075 l 1050 6075 l cp gs 0.50 setgray ef gr gs col0 s gr 
% Polyline
n 1050 5325 m 2250 5325 l 2250 5625 l 1050 5625 l cp gs col7 1.00 shd ef gr gs col0 s gr 
% Polyline
n 1275 5100 m 1575 5100 l 1575 6300 l 1275 6300 l cp gs col7 1.00 shd ef gr gs col0 s gr 
% Polyline
n 1725 5100 m 2025 5100 l 2025 6300 l 1725 6300 l cp gs 0.50 setgray ef gr gs col0 s gr 
% Polyline
n 2700 5775 m 3900 5775 l 3900 6075 l 2700 6075 l cp gs 0.50 setgray ef gr gs col0 s gr 
% Polyline
n 2700 5325 m 3900 5325 l 3900 5625 l 2700 5625 l cp gs col7 1.00 shd ef gr gs col0 s gr 
% Polyline
n 2925 5100 m 3225 5100 l 3225 6300 l 2925 6300 l cp gs col7 1.00 shd ef gr gs col0 s gr 
% Polyline
n 3375 5100 m 3675 5100 l 3675 6300 l 3375 6300 l cp gs 0.50 setgray ef gr gs col0 s gr 
% Polyline
n 4350 5775 m 5550 5775 l 5550 6075 l 4350 6075 l cp gs 0.50 setgray ef gr gs col0 s gr 
% Polyline
n 4350 5325 m 5550 5325 l 5550 5625 l 4350 5625 l cp gs col7 1.00 shd ef gr gs col0 s gr 
% Polyline
n 4575 5100 m 4875 5100 l 4875 6300 l 4575 6300 l cp gs col7 1.00 shd ef gr gs col0 s gr 
% Polyline
n 5025 5100 m 5325 5100 l 5325 6300 l 5025 6300 l cp gs 0.50 setgray ef gr gs col0 s gr 
% Polyline
n 6000 5775 m 7200 5775 l 7200 6075 l 6000 6075 l cp gs 0.50 setgray ef gr gs col0 s gr 
% Polyline
n 6000 5325 m 7200 5325 l 7200 5625 l 6000 5625 l cp gs col7 1.00 shd ef gr gs col0 s gr 
% Polyline
n 6225 5100 m 6525 5100 l 6525 6300 l 6225 6300 l cp gs col7 1.00 shd ef gr gs col0 s gr 
% Polyline
n 6675 5100 m 6975 5100 l 6975 6300 l 6675 6300 l cp gs 0.50 setgray ef gr gs col0 s gr 
% Polyline
n 6000 7650 m 7200 7650 l 7200 7950 l 6000 7950 l cp gs 0.50 setgray ef gr gs col0 s gr 
% Polyline
n 6000 7200 m 7200 7200 l 7200 7500 l 6000 7500 l cp gs col7 1.00 shd ef gr gs col0 s gr 
% Polyline
n 6225 6975 m 6525 6975 l 6525 8175 l 6225 8175 l cp gs col7 1.00 shd ef gr gs col0 s gr 
% Polyline
n 6675 6975 m 6975 6975 l 6975 8175 l 6675 8175 l cp gs 0.50 setgray ef gr gs col0 s gr 
% Polyline
n 2700 7650 m 3900 7650 l 3900 7950 l 2700 7950 l cp gs 0.50 setgray ef gr gs col0 s gr 
% Polyline
n 2700 7200 m 3900 7200 l 3900 7500 l 2700 7500 l cp gs col7 1.00 shd ef gr gs col0 s gr 
% Polyline
n 2925 6975 m 3225 6975 l 3225 8175 l 2925 8175 l cp gs col7 1.00 shd ef gr gs col0 s gr 
% Polyline
n 3375 6975 m 3675 6975 l 3675 8175 l 3375 8175 l cp gs 0.50 setgray ef gr gs col0 s gr 
% Polyline
n 1050 7650 m 2250 7650 l 2250 7950 l 1050 7950 l cp gs 0.50 setgray ef gr gs col0 s gr 
% Polyline
n 1050 7200 m 2250 7200 l 2250 7500 l 1050 7500 l cp gs col7 1.00 shd ef gr gs col0 s gr 
% Polyline
n 1275 6975 m 1575 6975 l 1575 8175 l 1275 8175 l cp gs col7 1.00 shd ef gr gs col0 s gr 
% Polyline
n 1725 6975 m 2025 6975 l 2025 8175 l 1725 8175 l cp gs 0.50 setgray ef gr gs col0 s gr 
% Polyline
n 4350 7650 m 5550 7650 l 5550 7950 l 4350 7950 l cp gs 0.50 setgray ef gr gs col0 s gr 
% Polyline
n 4350 7200 m 5550 7200 l 5550 7500 l 4350 7500 l cp gs col7 1.00 shd ef gr gs col0 s gr 
% Polyline
n 4575 6975 m 4875 6975 l 4875 8175 l 4575 8175 l cp gs col7 1.00 shd ef gr gs col0 s gr 
% Polyline
n 5025 6975 m 5325 6975 l 5325 8175 l 5025 8175 l cp gs 0.50 setgray ef gr gs col0 s gr 
% Polyline
n 4350 3900 m 5550 3900 l 5550 4200 l 4350 4200 l cp gs 0.50 setgray ef gr gs col0 s gr 
% Polyline
n 4350 3450 m 5550 3450 l 5550 3750 l 4350 3750 l cp gs col7 1.00 shd ef gr gs col0 s gr 
% Polyline
n 4575 3225 m 4875 3225 l 4875 4425 l 4575 4425 l cp gs col7 1.00 shd ef gr gs col0 s gr 
% Polyline
n 5025 3225 m 5325 3225 l 5325 4425 l 5025 4425 l cp gs 0.50 setgray ef gr gs col0 s gr 
/Times-Bold ff 180.00 scf sf
3300 4725 m
gs 1 -1 sc (COPY) dup sw pop 2 div neg 0 rm  col0 sh gr
/Times-Bold ff 180.00 scf sf
4950 4725 m
gs 1 -1 sc (XOR) dup sw pop 2 div neg 0 rm  col0 sh gr
/Times-Bold ff 180.00 scf sf
6600 4725 m
gs 1 -1 sc (OR) dup sw pop 2 div neg 0 rm  col0 sh gr
/Times-Roman ff 180.00 scf sf
1650 4725 m
gs 1 -1 sc (AND_REVERSE) dup sw pop 2 div neg 0 rm  col0 sh gr
% Polyline
7.500 slw
 [60] 0 sd
n 1725 1575 m 2025 1575 l 2025 1875 l 1725 1875 l cp gs col7 1.00 shd ef gr gs col0 s gr  [] 0 sd
% Polyline
 [60] 0 sd
n 1725 2025 m 2025 2025 l 2025 2325 l 1725 2325 l cp gs col7 1.00 shd ef gr gs col0 s gr  [] 0 sd
% Polyline
 [60] 0 sd
n 1275 2025 m 1575 2025 l 1575 2325 l 1275 2325 l cp gs col7 1.00 shd ef gr gs col0 s gr  [] 0 sd
% Polyline
 [60] 0 sd
n 1275 1575 m 1575 1575 l 1575 1875 l 1275 1875 l cp gs col7 1.00 shd ef gr gs col0 s gr  [] 0 sd
% Polyline
 [60] 0 sd
n 2925 1575 m 3225 1575 l 3225 1875 l 2925 1875 l cp gs col7 1.00 shd ef gr gs col0 s gr  [] 0 sd
% Polyline
 [60] 0 sd
n 3375 1575 m 3675 1575 l 3675 1875 l 3375 1875 l cp gs col7 1.00 shd ef gr gs col0 s gr  [] 0 sd
% Polyline
 [60] 0 sd
n 3375 2025 m 3675 2025 l 3675 2325 l 3375 2325 l cp gs 0.50 setgray ef gr gs col0 s gr  [] 0 sd
% Polyline
 [60] 0 sd
n 2925 2025 m 3225 2025 l 3225 2325 l 2925 2325 l cp gs col7 1.00 shd ef gr gs col0 s gr  [] 0 sd
% Polyline
 [60] 0 sd
n 4575 1575 m 4875 1575 l 4875 1875 l 4575 1875 l cp gs col7 1.00 shd ef gr gs col0 s gr  [] 0 sd
% Polyline
 [60] 0 sd
n 5025 1575 m 5325 1575 l 5325 1875 l 5025 1875 l cp gs col7 1.00 shd ef gr gs col0 s gr  [] 0 sd
% Polyline
 [60] 0 sd
n 5025 2025 m 5325 2025 l 5325 2325 l 5025 2325 l cp gs col7 1.00 shd ef gr gs col0 s gr  [] 0 sd
% Polyline
 [60] 0 sd
n 4575 2025 m 4875 2025 l 4875 2325 l 4575 2325 l cp gs 0.50 setgray ef gr gs col0 s gr  [] 0 sd
% Polyline
 [60] 0 sd
n 6225 1575 m 6525 1575 l 6525 1875 l 6225 1875 l cp gs col7 1.00 shd ef gr gs col0 s gr  [] 0 sd
% Polyline
 [60] 0 sd
n 6675 1575 m 6975 1575 l 6975 1875 l 6675 1875 l cp gs col7 1.00 shd ef gr gs col0 s gr  [] 0 sd
% Polyline
 [60] 0 sd
n 6675 2025 m 6975 2025 l 6975 2325 l 6675 2325 l cp gs 0.50 setgray ef gr gs col0 s gr  [] 0 sd
% Polyline
 [60] 0 sd
n 6225 2025 m 6525 2025 l 6525 2325 l 6225 2325 l cp gs 0.50 setgray ef gr gs col0 s gr  [] 0 sd
% Polyline
 [60] 0 sd
n 6225 3450 m 6525 3450 l 6525 3750 l 6225 3750 l cp gs col7 1.00 shd ef gr gs col0 s gr  [] 0 sd
% Polyline
 [60] 0 sd
n 6675 3450 m 6975 3450 l 6975 3750 l 6675 3750 l cp gs 0.50 setgray ef gr gs col0 s gr  [] 0 sd
% Polyline
 [60] 0 sd
n 6675 3900 m 6975 3900 l 6975 4200 l 6675 4200 l cp gs 0.50 setgray ef gr gs col0 s gr  [] 0 sd
% Polyline
 [60] 0 sd
n 6225 3900 m 6525 3900 l 6525 4200 l 6225 4200 l cp gs 0.50 setgray ef gr gs col0 s gr  [] 0 sd
% Polyline
 [60] 0 sd
n 5025 3900 m 5325 3900 l 5325 4200 l 5025 4200 l cp gs col7 1.00 shd ef gr gs col0 s gr  [] 0 sd
% Polyline
 [60] 0 sd
n 4575 3900 m 4875 3900 l 4875 4200 l 4575 4200 l cp gs 0.50 setgray ef gr gs col0 s gr  [] 0 sd
% Polyline
 [60] 0 sd
n 4575 3450 m 4875 3450 l 4875 3750 l 4575 3750 l cp gs col7 1.00 shd ef gr gs col0 s gr  [] 0 sd
% Polyline
 [60] 0 sd
n 5025 3450 m 5325 3450 l 5325 3750 l 5025 3750 l cp gs 0.50 setgray ef gr gs col0 s gr  [] 0 sd
% Polyline
 [60] 0 sd
n 2925 3450 m 3225 3450 l 3225 3750 l 2925 3750 l cp gs col7 1.00 shd ef gr gs col0 s gr  [] 0 sd
% Polyline
 [60] 0 sd
n 3375 3450 m 3675 3450 l 3675 3750 l 3375 3750 l cp gs 0.50 setgray ef gr gs col0 s gr  [] 0 sd
% Polyline
 [60] 0 sd
n 3375 3900 m 3675 3900 l 3675 4200 l 3375 4200 l cp gs 0.50 setgray ef gr gs col0 s gr  [] 0 sd
% Polyline
 [60] 0 sd
n 2925 3900 m 3225 3900 l 3225 4200 l 2925 4200 l cp gs col7 1.00 shd ef gr gs col0 s gr  [] 0 sd
% Polyline
 [60] 0 sd
n 1725 3900 m 2025 3900 l 2025 4200 l 1725 4200 l cp gs col7 1.00 shd ef gr gs col0 s gr  [] 0 sd
% Polyline
 [60] 0 sd
n 1725 3450 m 2025 3450 l 2025 3750 l 1725 3750 l cp gs 0.50 setgray ef gr gs col0 s gr  [] 0 sd
% Polyline
 [60] 0 sd
n 1275 3450 m 1575 3450 l 1575 3750 l 1275 3750 l cp gs col7 1.00 shd ef gr gs col0 s gr  [] 0 sd
% Polyline
 [60] 0 sd
n 1275 3900 m 1575 3900 l 1575 4200 l 1275 4200 l cp gs col7 1.00 shd ef gr gs col0 s gr  [] 0 sd
% Polyline
 [60] 0 sd
n 1275 5325 m 1575 5325 l 1575 5625 l 1275 5625 l cp gs 0.50 setgray ef gr gs col0 s gr  [] 0 sd
% Polyline
 [60] 0 sd
n 1725 5325 m 2025 5325 l 2025 5625 l 1725 5625 l cp gs col7 1.00 shd ef gr gs col0 s gr  [] 0 sd
% Polyline
 [60] 0 sd
n 1725 5775 m 2025 5775 l 2025 6075 l 1725 6075 l cp gs col7 1.00 shd ef gr gs col0 s gr  [] 0 sd
% Polyline
 [60] 0 sd
n 1275 5775 m 1575 5775 l 1575 6075 l 1275 6075 l cp gs col7 1.00 shd ef gr gs col0 s gr  [] 0 sd
% Polyline
 [60] 0 sd
n 2925 5325 m 3225 5325 l 3225 5625 l 2925 5625 l cp gs 0.50 setgray ef gr gs col0 s gr  [] 0 sd
% Polyline
 [60] 0 sd
n 3375 5325 m 3675 5325 l 3675 5625 l 3375 5625 l cp gs col7 1.00 shd ef gr gs col0 s gr  [] 0 sd
% Polyline
 [60] 0 sd
n 3375 5775 m 3675 5775 l 3675 6075 l 3375 6075 l cp gs 0.50 setgray ef gr gs col0 s gr  [] 0 sd
% Polyline
 [60] 0 sd
n 2925 5775 m 3225 5775 l 3225 6075 l 2925 6075 l cp gs col7 1.00 shd ef gr gs col0 s gr  [] 0 sd
% Polyline
 [60] 0 sd
n 4575 5325 m 4875 5325 l 4875 5625 l 4575 5625 l cp gs 0.50 setgray ef gr gs col0 s gr  [] 0 sd
% Polyline
 [60] 0 sd
n 5025 5325 m 5325 5325 l 5325 5625 l 5025 5625 l cp gs col7 1.00 shd ef gr gs col0 s gr  [] 0 sd
% Polyline
 [60] 0 sd
n 5025 5775 m 5325 5775 l 5325 6075 l 5025 6075 l cp gs col7 1.00 shd ef gr gs col0 s gr  [] 0 sd
% Polyline
 [60] 0 sd
n 4575 5775 m 4875 5775 l 4875 6075 l 4575 6075 l cp gs 0.50 setgray ef gr gs col0 s gr  [] 0 sd
% Polyline
 [60] 0 sd
n 6225 5325 m 6525 5325 l 6525 5625 l 6225 5625 l cp gs 0.50 setgray ef gr gs col0 s gr  [] 0 sd
% Polyline
 [60] 0 sd
n 6675 5325 m 6975 5325 l 6975 5625 l 6675 5625 l cp gs col7 1.00 shd ef gr gs col0 s gr  [] 0 sd
% Polyline
 [60] 0 sd
n 6675 5775 m 6975 5775 l 6975 6075 l 6675 6075 l cp gs 0.50 setgray ef gr gs col0 s gr  [] 0 sd
% Polyline
 [60] 0 sd
n 6225 5775 m 6525 5775 l 6525 6075 l 6225 6075 l cp gs 0.50 setgray ef gr gs col0 s gr  [] 0 sd
% Polyline
 [60] 0 sd
n 6675 7200 m 6975 7200 l 6975 7500 l 6675 7500 l cp gs 0.50 setgray ef gr gs col0 s gr  [] 0 sd
% Polyline
 [60] 0 sd
n 6675 7650 m 6975 7650 l 6975 7950 l 6675 7950 l cp gs 0.50 setgray ef gr gs col0 s gr  [] 0 sd
% Polyline
 [60] 0 sd
n 6225 7650 m 6525 7650 l 6525 7950 l 6225 7950 l cp gs 0.50 setgray ef gr gs col0 s gr  [] 0 sd
% Polyline
 [60] 0 sd
n 6225 7200 m 6525 7200 l 6525 7500 l 6225 7500 l cp gs 0.50 setgray ef gr gs col0 s gr  [] 0 sd
% Polyline
 [60] 0 sd
n 4575 7200 m 4875 7200 l 4875 7500 l 4575 7500 l cp gs 0.50 setgray ef gr gs col0 s gr  [] 0 sd
% Polyline
 [60] 0 sd
n 5025 7200 m 5325 7200 l 5325 7500 l 5025 7500 l cp gs 0.50 setgray ef gr gs col0 s gr  [] 0 sd
% Polyline
 [60] 0 sd
n 5025 7650 m 5325 7650 l 5325 7950 l 5025 7950 l cp gs col7 1.00 shd ef gr gs col0 s gr  [] 0 sd
% Polyline
 [60] 0 sd
n 4575 7650 m 4875 7650 l 4875 7950 l 4575 7950 l cp gs 0.50 setgray ef gr gs col0 s gr  [] 0 sd
% Polyline
 [60] 0 sd
n 2925 7650 m 3225 7650 l 3225 7950 l 2925 7950 l cp gs col7 1.00 shd ef gr gs col0 s gr  [] 0 sd
% Polyline
 [60] 0 sd
n 2925 7200 m 3225 7200 l 3225 7500 l 2925 7500 l cp gs 0.50 setgray ef gr gs col0 s gr  [] 0 sd
% Polyline
 [60] 0 sd
n 3375 7200 m 3675 7200 l 3675 7500 l 3375 7500 l cp gs 0.50 setgray ef gr gs col0 s gr  [] 0 sd
% Polyline
 [60] 0 sd
n 3375 7650 m 3675 7650 l 3675 7950 l 3375 7950 l cp gs 0.50 setgray ef gr gs col0 s gr  [] 0 sd
% Polyline
 [60] 0 sd
n 1725 7650 m 2025 7650 l 2025 7950 l 1725 7950 l cp gs col7 1.00 shd ef gr gs col0 s gr  [] 0 sd
% Polyline
 [60] 0 sd
n 1725 7200 m 2025 7200 l 2025 7500 l 1725 7500 l cp gs 0.50 setgray ef gr gs col0 s gr  [] 0 sd
% Polyline
 [60] 0 sd
n 1275 7200 m 1575 7200 l 1575 7500 l 1275 7500 l cp gs 0.50 setgray ef gr gs col0 s gr  [] 0 sd
% Polyline
 [60] 0 sd
n 1275 7650 m 1575 7650 l 1575 7950 l 1275 7950 l cp gs col7 1.00 shd ef gr gs col0 s gr  [] 0 sd
% Polyline
15.000 slw
n 1275 3225 m 1275 4425 l gs col0 s gr 
% Polyline
n 1575 3225 m 1575 4425 l gs col0 s gr 
% Polyline
n 1725 3225 m 1725 4425 l gs col0 s gr 
% Polyline
n 2025 3225 m 2025 4425 l gs col0 s gr 
% Polyline
n 1275 1350 m 1275 2550 l gs col0 s gr 
% Polyline
n 1575 1350 m 1575 2550 l gs col0 s gr 
% Polyline
n 1725 1350 m 1725 2550 l gs col0 s gr 
% Polyline
n 2025 1350 m 2025 2550 l gs col0 s gr 
% Polyline
n 2925 1350 m 2925 2550 l gs col0 s gr 
% Polyline
n 3225 1350 m 3225 2550 l gs col0 s gr 
% Polyline
n 3375 1350 m 3375 2550 l gs col0 s gr 
% Polyline
n 3675 1350 m 3675 2550 l gs col0 s gr 
% Polyline
n 4575 1350 m 4575 2550 l gs col0 s gr 
% Polyline
n 4875 1350 m 4875 2550 l gs col0 s gr 
% Polyline
n 5025 1350 m 5025 2550 l gs col0 s gr 
% Polyline
n 5325 1350 m 5325 2550 l gs col0 s gr 
% Polyline
n 6225 1350 m 6225 2550 l gs col0 s gr 
% Polyline
n 6525 1350 m 6525 2550 l gs col0 s gr 
% Polyline
n 6675 1350 m 6675 2550 l gs col0 s gr 
% Polyline
n 6975 1350 m 6975 2550 l gs col0 s gr 
% Polyline
n 1275 3225 m 1275 4425 l gs col0 s gr 
% Polyline
n 1575 3225 m 1575 4425 l gs col0 s gr 
% Polyline
n 1725 3225 m 1725 4425 l gs col0 s gr 
% Polyline
n 2025 3225 m 2025 4425 l gs col0 s gr 
% Polyline
n 2925 3225 m 2925 4425 l gs col0 s gr 
% Polyline
n 3225 3225 m 3225 4425 l gs col0 s gr 
% Polyline
n 3375 3225 m 3375 4425 l gs col0 s gr 
% Polyline
n 3675 3225 m 3675 4425 l gs col0 s gr 
% Polyline
n 6225 3225 m 6225 4425 l gs col0 s gr 
% Polyline
n 6525 3225 m 6525 4425 l gs col0 s gr 
% Polyline
n 6675 3225 m 6675 4425 l gs col0 s gr 
% Polyline
n 6975 3225 m 6975 4425 l gs col0 s gr 
% Polyline
n 1275 5100 m 1275 6300 l gs col0 s gr 
% Polyline
n 1575 5100 m 1575 6300 l gs col0 s gr 
% Polyline
n 1725 5100 m 1725 6300 l gs col0 s gr 
% Polyline
n 2025 5100 m 2025 6300 l gs col0 s gr 
% Polyline
n 2925 5100 m 2925 6300 l gs col0 s gr 
% Polyline
n 3225 5100 m 3225 6300 l gs col0 s gr 
% Polyline
n 3375 5100 m 3375 6300 l gs col0 s gr 
% Polyline
n 3675 5100 m 3675 6300 l gs col0 s gr 
% Polyline
n 4575 5100 m 4575 6300 l gs col0 s gr 
% Polyline
n 4875 5100 m 4875 6300 l gs col0 s gr 
% Polyline
n 5025 5100 m 5025 6300 l gs col0 s gr 
% Polyline
n 5325 5100 m 5325 6300 l gs col0 s gr 
% Polyline
n 6225 5100 m 6225 6300 l gs col0 s gr 
% Polyline
n 6525 5100 m 6525 6300 l gs col0 s gr 
% Polyline
n 6675 5100 m 6675 6300 l gs col0 s gr 
% Polyline
n 6975 5100 m 6975 6300 l gs col0 s gr 
% Polyline
n 1275 6975 m 1275 8175 l gs col0 s gr 
% Polyline
n 1575 6975 m 1575 8175 l gs col0 s gr 
% Polyline
n 1725 6975 m 1725 8175 l gs col0 s gr 
% Polyline
n 2025 6975 m 2025 8175 l gs col0 s gr 
% Polyline
n 2925 6975 m 2925 8175 l gs col0 s gr 
% Polyline
n 3225 6975 m 3225 8175 l gs col0 s gr 
% Polyline
n 3375 6975 m 3375 8175 l gs col0 s gr 
% Polyline
n 3675 6975 m 3675 8175 l gs col0 s gr 
% Polyline
n 4575 6975 m 4575 8175 l gs col0 s gr 
% Polyline
n 4875 6975 m 4875 8175 l gs col0 s gr 
% Polyline
n 5025 6975 m 5025 8175 l gs col0 s gr 
% Polyline
n 5325 6975 m 5325 8175 l gs col0 s gr 
% Polyline
n 6225 6975 m 6225 8175 l gs col0 s gr 
% Polyline
n 6525 6975 m 6525 8175 l gs col0 s gr 
% Polyline
n 6675 6975 m 6675 8175 l gs col0 s gr 
% Polyline
n 6975 6975 m 6975 8175 l gs col0 s gr 
% Polyline
n 4575 3225 m 4575 4425 l gs col0 s gr 
% Polyline
n 4875 3225 m 4875 4425 l gs col0 s gr 
% Polyline
n 5025 3225 m 5025 4425 l gs col0 s gr 
% Polyline
n 5325 3225 m 5325 4425 l gs col0 s gr 
% Polyline
n 1268 3225 m 1283 3225 l gs col0 s gr
/Times-Bold ff 180.00 scf sf
1650 8475 m
gs 1 -1 sc (INVERT) dup sw pop 2 div neg 0 rm  col0 sh gr
/Times-Roman ff 180.00 scf sf
4950 8475 m
gs 1 -1 sc (NAND) dup sw pop 2 div neg 0 rm  col0 sh gr
/Times-Roman ff 180.00 scf sf
1650 6600 m
gs 1 -1 sc (NOR) dup sw pop 2 div neg 0 rm  col0 sh gr
/Times-Roman ff 180.00 scf sf
6600 6600 m
gs 1 -1 sc (OR_INVERTED) dup sw pop 2 div neg 0 rm  col0 sh gr
/Times-Roman ff 180.00 scf sf
4950 6600 m
gs 1 -1 sc (COPY_INVERTED) dup sw pop 2 div neg 0 rm  col0 sh gr
/Times-Roman ff 180.00 scf sf
3300 6600 m
gs 1 -1 sc (EQUIV) dup sw pop 2 div neg 0 rm  col0 sh gr
/Times-Roman ff 180.00 scf sf
3300 8475 m
gs 1 -1 sc (OR_REVERSE) dup sw pop 2 div neg 0 rm  col0 sh gr
/Times-Roman ff 180.00 scf sf
6600 8475 m
gs 1 -1 sc (SET) dup sw pop 2 div neg 0 rm  col0 sh gr
/Times-Roman ff 180.00 scf sf
1650 1200 m
gs 1 -1 sc (Source) dup sw pop 2 div neg 0 rm  col0 sh gr
/Times-Roman ff 180.00 scf sf
1650 2850 m
gs 1 -1 sc (CLEAR) dup sw pop 2 div neg 0 rm  col0 sh gr
/Times-Roman ff 180.00 scf sf
6600 2850 m
gs 1 -1 sc (NOOP) dup sw pop 2 div neg 0 rm  col0 sh gr
/Times-Bold ff 180.00 scf sf
3300 2850 m
gs 1 -1 sc (AND) dup sw pop 2 div neg 0 rm  col0 sh gr
/Times-Roman ff 180.00 scf sf
4950 2850 m
gs 1 -1 sc (AND_INVERTED) dup sw pop 2 div neg 0 rm  col0 sh gr
/Times-Roman ff 180.00 scf sf
900 1950 m
gs 1 -1 sc  90.0 rot (Destination) dup sw pop 2 div neg 0 rm  col0 sh gr
$F2psEnd
rs
