%!PS-Adobe-2.0 EPSF-2.0
%%Title: gtklibs.eps
%%Creator: fig2dev Version 3.2 Patchlevel 1
%%CreationDate: Wed Dec  2 09:57:48 1998
%%For: imain@granite (Ian Main,Slow,,)
%%Orientation: Portrait
%%BoundingBox: 0 0 319 211
%%Pages: 0
%%BeginSetup
%%EndSetup
%%Magnification: 1.0000
%%EndComments
/$F2psDict 200 dict def
$F2psDict begin
$F2psDict /mtrx matrix put
/col-1 {0 setgray} bind def
/col0 {0.000 0.000 0.000 srgb} bind def
/col1 {0.000 0.000 1.000 srgb} bind def
/col2 {0.000 1.000 0.000 srgb} bind def
/col3 {0.000 1.000 1.000 srgb} bind def
/col4 {1.000 0.000 0.000 srgb} bind def
/col5 {1.000 0.000 1.000 srgb} bind def
/col6 {1.000 1.000 0.000 srgb} bind def
/col7 {1.000 1.000 1.000 srgb} bind def
/col8 {0.000 0.000 0.560 srgb} bind def
/col9 {0.000 0.000 0.690 srgb} bind def
/col10 {0.000 0.000 0.820 srgb} bind def
/col11 {0.530 0.810 1.000 srgb} bind def
/col12 {0.000 0.560 0.000 srgb} bind def
/col13 {0.000 0.690 0.000 srgb} bind def
/col14 {0.000 0.820 0.000 srgb} bind def
/col15 {0.000 0.560 0.560 srgb} bind def
/col16 {0.000 0.690 0.690 srgb} bind def
/col17 {0.000 0.820 0.820 srgb} bind def
/col18 {0.560 0.000 0.000 srgb} bind def
/col19 {0.690 0.000 0.000 srgb} bind def
/col20 {0.820 0.000 0.000 srgb} bind def
/col21 {0.560 0.000 0.560 srgb} bind def
/col22 {0.690 0.000 0.690 srgb} bind def
/col23 {0.820 0.000 0.820 srgb} bind def
/col24 {0.500 0.190 0.000 srgb} bind def
/col25 {0.630 0.250 0.000 srgb} bind def
/col26 {0.750 0.380 0.000 srgb} bind def
/col27 {1.000 0.500 0.500 srgb} bind def
/col28 {1.000 0.630 0.630 srgb} bind def
/col29 {1.000 0.750 0.750 srgb} bind def
/col30 {1.000 0.880 0.880 srgb} bind def
/col31 {1.000 0.840 0.000 srgb} bind def

end
save
-187.0 551.0 translate
1 -1 scale

/cp {closepath} bind def
/ef {eofill} bind def
/gr {grestore} bind def
/gs {gsave} bind def
/sa {save} bind def
/rs {restore} bind def
/l {lineto} bind def
/m {moveto} bind def
/rm {rmoveto} bind def
/n {newpath} bind def
/s {stroke} bind def
/sh {show} bind def
/slc {setlinecap} bind def
/slj {setlinejoin} bind def
/slw {setlinewidth} bind def
/srgb {setrgbcolor} bind def
/rot {rotate} bind def
/sc {scale} bind def
/sd {setdash} bind def
/ff {findfont} bind def
/sf {setfont} bind def
/scf {scalefont} bind def
/sw {stringwidth} bind def
/tr {translate} bind def
/tnt {dup dup currentrgbcolor
  4 -2 roll dup 1 exch sub 3 -1 roll mul add
  4 -2 roll dup 1 exch sub 3 -1 roll mul add
  4 -2 roll dup 1 exch sub 3 -1 roll mul add srgb}
  bind def
/shd {dup dup currentrgbcolor 4 -2 roll mul 4 -2 roll mul
  4 -2 roll mul srgb} bind def
/$F2psBegin {$F2psDict begin /$F2psEnteredState save def} def
/$F2psEnd {$F2psEnteredState restore end} def
%%EndProlog

$F2psBegin
10 setmiterlimit
n -1000 10172 m -1000 -1000 l 9422 -1000 l 9422 10172 l cp clip
 0.06000 0.06000 sc
% Polyline
1 slj
1 slc
15.000 slw
n 4575 8850 m 4575 9150 l 5775 9150 l 5775 7425 l 3150 7425 l 3150 9150 l
 4425 9150 l 4425 8850 l 3450 8850 l 3450 7800 l 5475 7800 l
 5475 8850 l 4575 8850 l  cp gs col0 s gr 
% Polyline
0 slj
n 4380 6525 m 4275 6525 4275 7170 105 arcto 4 {pop} repeat
  4275 7275 7170 7275 105 arcto 4 {pop} repeat
  7275 7275 7275 6630 105 arcto 4 {pop} repeat
  7275 6525 4380 6525 105 arcto 4 {pop} repeat
 cp gs col0 s gr 
% Polyline
n 6030 7425 m 5925 7425 5925 9045 105 arcto 4 {pop} repeat
  5925 9150 8295 9150 105 arcto 4 {pop} repeat
  8400 9150 8400 7530 105 arcto 4 {pop} repeat
  8400 7425 6030 7425 105 arcto 4 {pop} repeat
 cp gs col0 s gr 
% Polyline
0 slc
n 4125 7275 m 3150 7275 l 3150 5700 l 8400 5700 l 8400 7275 l 7425 7275 l
 7425 6300 l 4125 6300 l gs col0 s gr 
% Polyline
n 4125 7275 m 4125 6300 l gs col0 s gr 
% Polyline
n 3630 7875 m 3525 7875 3525 8670 105 arcto 4 {pop} repeat
  3525 8775 5295 8775 105 arcto 4 {pop} repeat
  5400 8775 5400 7980 105 arcto 4 {pop} repeat
  5400 7875 3630 7875 105 arcto 4 {pop} repeat
 cp gs col0 s gr 
/Times-Roman ff 300.00 scf sf
5550 6975 m
gs 1 -1 sc (libgtk) col0 sh gr
/Times-Roman ff 300.00 scf sf
5175 6075 m
gs 1 -1 sc (Application) col0 sh gr
/Times-Roman ff 300.00 scf sf
6675 8325 m
gs 1 -1 sc (libglib) col0 sh gr
/Times-Roman ff 300.00 scf sf
4275 8325 m
gs 1 -1 sc (xlib) col0 sh gr
/Times-Roman ff 300.00 scf sf
4200 7725 m
gs 1 -1 sc (libgdk) col0 sh gr
$F2psEnd
rs
