%!PS-Adobe-2.0 EPSF-2.0
%%Title: key-handling.eps
%%Creator: fig2dev Version 3.2 Patchlevel 1
%%CreationDate: Sun Nov 21 05:18:35 1999
%%For: otaylor@lablap.labs.redhat.com (Owen Taylor)
%%Orientation: Portrait
%%BoundingBox: 0 0 353 473
%%Pages: 0
%%BeginSetup
%%EndSetup
%%Magnification: 1.0000
%%EndComments
/$F2psDict 200 dict def
$F2psDict begin
$F2psDict /mtrx matrix put
/col-1 {0 setgray} bind def
/col0 {0.000 0.000 0.000 srgb} bind def
/col1 {0.000 0.000 1.000 srgb} bind def
/col2 {0.000 1.000 0.000 srgb} bind def
/col3 {0.000 1.000 1.000 srgb} bind def
/col4 {1.000 0.000 0.000 srgb} bind def
/col5 {1.000 0.000 1.000 srgb} bind def
/col6 {1.000 1.000 0.000 srgb} bind def
/col7 {1.000 1.000 1.000 srgb} bind def
/col8 {0.000 0.000 0.560 srgb} bind def
/col9 {0.000 0.000 0.690 srgb} bind def
/col10 {0.000 0.000 0.820 srgb} bind def
/col11 {0.530 0.810 1.000 srgb} bind def
/col12 {0.000 0.560 0.000 srgb} bind def
/col13 {0.000 0.690 0.000 srgb} bind def
/col14 {0.000 0.820 0.000 srgb} bind def
/col15 {0.000 0.560 0.560 srgb} bind def
/col16 {0.000 0.690 0.690 srgb} bind def
/col17 {0.000 0.820 0.820 srgb} bind def
/col18 {0.560 0.000 0.000 srgb} bind def
/col19 {0.690 0.000 0.000 srgb} bind def
/col20 {0.820 0.000 0.000 srgb} bind def
/col21 {0.560 0.000 0.560 srgb} bind def
/col22 {0.690 0.000 0.690 srgb} bind def
/col23 {0.820 0.000 0.820 srgb} bind def
/col24 {0.500 0.190 0.000 srgb} bind def
/col25 {0.630 0.250 0.000 srgb} bind def
/col26 {0.750 0.380 0.000 srgb} bind def
/col27 {1.000 0.500 0.500 srgb} bind def
/col28 {1.000 0.630 0.630 srgb} bind def
/col29 {1.000 0.750 0.750 srgb} bind def
/col30 {1.000 0.880 0.880 srgb} bind def
/col31 {1.000 0.840 0.000 srgb} bind def
/col32 {0.812 0.812 0.812 srgb} bind def

end
save
-94.0 500.0 translate
1 -1 scale

/cp {closepath} bind def
/ef {eofill} bind def
/gr {grestore} bind def
/gs {gsave} bind def
/sa {save} bind def
/rs {restore} bind def
/l {lineto} bind def
/m {moveto} bind def
/rm {rmoveto} bind def
/n {newpath} bind def
/s {stroke} bind def
/sh {show} bind def
/slc {setlinecap} bind def
/slj {setlinejoin} bind def
/slw {setlinewidth} bind def
/srgb {setrgbcolor} bind def
/rot {rotate} bind def
/sc {scale} bind def
/sd {setdash} bind def
/ff {findfont} bind def
/sf {setfont} bind def
/scf {scalefont} bind def
/sw {stringwidth} bind def
/tr {translate} bind def
/tnt {dup dup currentrgbcolor
  4 -2 roll dup 1 exch sub 3 -1 roll mul add
  4 -2 roll dup 1 exch sub 3 -1 roll mul add
  4 -2 roll dup 1 exch sub 3 -1 roll mul add srgb}
  bind def
/shd {dup dup currentrgbcolor 4 -2 roll mul 4 -2 roll mul
  4 -2 roll mul srgb} bind def
/$F2psBegin {$F2psDict begin /$F2psEnteredState save def} def
/$F2psEnd {$F2psEnteredState restore end} def
%%EndProlog

$F2psBegin
10 setmiterlimit
n -1000 9325 m -1000 -1000 l 8437 -1000 l 8437 9325 l cp clip
 0.06000 0.06000 sc
% Polyline
n 1680 975 m 1575 975 1575 1395 105 arcto 4 {pop} repeat
  1575 1500 3720 1500 105 arcto 4 {pop} repeat
  3825 1500 3825 1080 105 arcto 4 {pop} repeat
  3825 975 1680 975 105 arcto 4 {pop} repeat
 cp gs col32 1.00 shd ef gr 
% Polyline
n 4830 1425 m 4725 1425 4725 1845 105 arcto 4 {pop} repeat
  4725 1950 7020 1950 105 arcto 4 {pop} repeat
  7125 1950 7125 1530 105 arcto 4 {pop} repeat
  7125 1425 4830 1425 105 arcto 4 {pop} repeat
 cp gs col32 1.00 shd ef gr 
% Polyline
n 5205 2175 m 5100 2175 5100 2595 105 arcto 4 {pop} repeat
  5100 2700 6645 2700 105 arcto 4 {pop} repeat
  6750 2700 6750 2280 105 arcto 4 {pop} repeat
  6750 2175 5205 2175 105 arcto 4 {pop} repeat
 cp gs col32 1.00 shd ef gr 
% Polyline
n 4905 2925 m 4800 2925 4800 3345 105 arcto 4 {pop} repeat
  4800 3450 7095 3450 105 arcto 4 {pop} repeat
  7200 3450 7200 3030 105 arcto 4 {pop} repeat
  7200 2925 4905 2925 105 arcto 4 {pop} repeat
 cp gs col32 1.00 shd ef gr 
% Polyline
n 5325 4200 m 5925 3600 l 6525 4200 l 5925 4800 l 5325 4200 l  cp gs col32 1.00 shd ef gr 
% Polyline
n 2100 2475 m 2700 1875 l 3300 2475 l 2700 3075 l 2100 2475 l  cp gs col32 1.00 shd ef gr 
% Polyline
n 1980 3900 m 1875 3900 1875 4320 105 arcto 4 {pop} repeat
  1875 4425 3570 4425 105 arcto 4 {pop} repeat
  3675 4425 3675 4005 105 arcto 4 {pop} repeat
  3675 3900 1980 3900 105 arcto 4 {pop} repeat
 cp gs col32 1.00 shd ef gr 
/Helvetica ff 180.00 scf sf
2775 4350 m
gs 1 -1 sc (groups for window) dup sw pop 2 div neg 0 rm  col0 sh gr
% Polyline
n 2100 5175 m 2700 4575 l 3300 5175 l 2700 5775 l 2100 5175 l  cp gs col32 1.00 shd ef gr 
% Polyline
n 2280 6300 m 2175 6300 2175 6720 105 arcto 4 {pop} repeat
  2175 6825 3270 6825 105 arcto 4 {pop} repeat
  3375 6825 3375 6405 105 arcto 4 {pop} repeat
  3375 6300 2280 6300 105 arcto 4 {pop} repeat
 cp gs col32 1.00 shd ef gr 
% Polyline
n 1755 7275 m 1650 7275 1650 7695 105 arcto 4 {pop} repeat
  1650 7800 3795 7800 105 arcto 4 {pop} repeat
  3900 7800 3900 7380 105 arcto 4 {pop} repeat
  3900 7275 1755 7275 105 arcto 4 {pop} repeat
 cp gs col32 1.00 shd ef gr 
% Arc
15.000 slw
gs n 4050.0 5550.0 375.0 -90.0 0.0 arc
gs col0 s gr
 gr

% Arc
gs n 3525.0 3900.0 375.0 -90.0 0.0 arc
gs col0 s gr
 gr

% Arc
gs n 4800.0 5550.0 375.0 -90.0 180.0 arcn
gs col0 s gr
 gr

% Arc
gs n 4275.0 3825.0 375.0 90.0 180.0 arc
gs col0 s gr
 gr

% Arc
gs n 3300.0 2100.0 375.0 90.0 0.0 arcn
gs col0 s gr
 gr

% Arc
gs n 4050.0 6600.0 375.0 90.0 0.0 arcn
gs col0 s gr
 gr

% Arc
gs n 4050.0 2025.0 375.0 -90.0 180.0 arcn
gs col0 s gr
 gr

% Arc
gs n 5550.0 4800.0 375.0 0.0 90.0 arc
gs col0 s gr
 gr

% Polyline
n 5925 1950 m 5925 2175 l gs col0 s gr 
% Polyline
n 5925 2700 m 5925 2925 l gs col0 s gr 
% Polyline
n 5925 3450 m 5925 3600 l gs col0 s gr 
% Polyline
gs  clippath
2730 3749 m 2700 3869 l 2670 3749 l 2670 3930 l 2730 3930 l cp
clip
n 2700 3075 m 2700 3900 l gs col0 s gr gr

% arrowhead
n 2730 3749 m 2700 3869 l 2670 3749 l 2700 3749 l 2730 3749 l  cp gs 0.00 setgray ef gr  col0 s
% Polyline
gs  clippath
2730 1724 m 2700 1844 l 2670 1724 l 2670 1905 l 2730 1905 l cp
clip
n 2700 1500 m 2700 1875 l gs col32 1.00 shd ef gr gs col0 s gr gr

% arrowhead
n 2730 1724 m 2700 1844 l 2670 1724 l 2700 1724 l 2730 1724 l  cp gs 0.00 setgray ef gr  col0 s
% Polyline
gs  clippath
2730 824 m 2700 944 l 2670 824 l 2670 1005 l 2730 1005 l cp
clip
n 2700 675 m 2700 975 l gs col0 s gr gr

% arrowhead
n 2730 824 m 2700 944 l 2670 824 l 2700 824 l 2730 824 l  cp gs 0.00 setgray ef gr  col0 s
% Polyline
n 2700 4425 m 2700 4575 l gs col0 s gr 
% Polyline
gs  clippath
2730 6149 m 2700 6269 l 2670 6149 l 2670 6330 l 2730 6330 l cp
clip
n 2700 5775 m 2700 6300 l gs col0 s gr gr

% arrowhead
n 2730 6149 m 2700 6269 l 2670 6149 l 2700 6149 l 2730 6149 l  cp gs 0.00 setgray ef gr  col0 s
% Polyline
gs  clippath
2730 7949 m 2700 8069 l 2670 7949 l 2670 8130 l 2730 8130 l cp
clip
n 2700 7800 m 2700 8100 l gs col0 s gr gr

% arrowhead
n 2730 7949 m 2700 8069 l 2670 7949 l 2700 7949 l 2730 7949 l  cp gs 0.00 setgray ef gr  col0 s
% Polyline
gs  clippath
2730 7124 m 2700 7244 l 2670 7124 l 2670 7305 l 2730 7305 l cp
clip
n 2700 6825 m 2700 7275 l gs col0 s gr gr

% arrowhead
n 2730 7124 m 2700 7244 l 2670 7124 l 2700 7124 l 2730 7124 l  cp gs 0.00 setgray ef gr  col0 s
% Polyline
7.500 slw
 [60] 0 sd
n 4425 1050 m 7425 1050 l 7425 3600 l 4425 3600 l cp gs col0 s gr  [] 0 sd
% Polyline
15.000 slw
n 3300 5175 m 4050 5175 l gs col0 s gr 
% Polyline
gs  clippath
2851 7005 m 2730 6975 l 2851 6945 l 2670 6945 l 2670 7005 l cp
clip
n 4050 6975 m 2700 6975 l gs col0 s gr gr

% arrowhead
n 2851 7005 m 2730 6975 l 2851 6945 l 2851 6975 l 2851 7005 l  cp gs 0.00 setgray ef gr  col0 s
% Polyline
n 4425 5550 m 4425 6600 l gs col0 s gr 
% Polyline
n 5325 4200 m 4275 4200 l gs col0 s gr 
% Polyline
gs  clippath
4574 1620 m 4694 1650 l 4574 1680 l 4755 1680 l 4755 1620 l cp
clip
n 3975 1650 m 4725 1650 l gs col0 s gr gr

% arrowhead
n 4574 1620 m 4694 1650 l 4574 1680 l 4574 1650 l 4574 1620 l  cp gs 0.00 setgray ef gr  col0 s
% Polyline
n 3675 2025 m 3675 2100 l gs col0 s gr 
% Polyline
n 5550 5175 m 4800 5175 l gs col0 s gr 
% Polyline
gs  clippath
2851 3555 m 2730 3525 l 2851 3495 l 2670 3495 l 2670 3555 l cp
clip
n 3525 3525 m 2700 3525 l gs col0 s gr gr

% arrowhead
n 2851 3555 m 2730 3525 l 2851 3495 l 2851 3525 l 2851 3555 l  cp gs 0.00 setgray ef gr  col0 s
/Helvetica ff 180.00 scf sf
3450 2700 m
gs 1 -1 sc (Yes) dup sw pop 2 div neg 0 rm  col0 sh gr
/Helvetica ff 180.00 scf sf
2850 3300 m
gs 1 -1 sc (No) dup sw pop 2 div neg 0 rm  col0 sh gr
/Helvetica ff 180.00 scf sf
6150 4950 m
gs 1 -1 sc (Yes) dup sw pop 2 div neg 0 rm  col0 sh gr
/Helvetica ff 180.00 scf sf
2850 6000 m
gs 1 -1 sc (No) dup sw pop 2 div neg 0 rm  col0 sh gr
/Helvetica ff 180.00 scf sf
5175 4425 m
gs 1 -1 sc (No) dup sw pop 2 div neg 0 rm  col0 sh gr
/Helvetica ff 180.00 scf sf
3450 5475 m
gs 1 -1 sc (Yes) dup sw pop 2 div neg 0 rm  col0 sh gr
/Helvetica ff 180.00 scf sf
2700 600 m
gs 1 -1 sc (Event Received) dup sw pop 2 div neg 0 rm  col0 sh gr
/Helvetica ff 180.00 scf sf
2700 8325 m
gs 1 -1 sc (Done) dup sw pop 2 div neg 0 rm  col0 sh gr
/Helvetica ff 180.00 scf sf
4500 1275 m
gs 1 -1 sc (Focus Widget) col0 sh gr
/Helvetica ff 180.00 scf sf
2700 1425 m
gs 1 -1 sc (handlers for toplevel) dup sw pop 2 div neg 0 rm  col0 sh gr
/Helvetica ff 180.00 scf sf
2700 1200 m
gs 1 -1 sc (Normal ::key_press_event) dup sw pop 2 div neg 0 rm  col0 sh gr
/Helvetica ff 180.00 scf sf
6000 1650 m
gs 1 -1 sc (Normal ::key_press_event) dup sw pop 2 div neg 0 rm  col0 sh gr
/Helvetica ff 180.00 scf sf
6000 1875 m
gs 1 -1 sc (handlers for focus widget) dup sw pop 2 div neg 0 rm  col0 sh gr
/Helvetica ff 180.00 scf sf
5925 2400 m
gs 1 -1 sc (key bindings for) dup sw pop 2 div neg 0 rm  col0 sh gr
/Helvetica ff 180.00 scf sf
5925 2625 m
gs 1 -1 sc (focus widget) dup sw pop 2 div neg 0 rm  col0 sh gr
/Helvetica ff 180.00 scf sf
6000 3150 m
gs 1 -1 sc ("after" ::key_press_event) dup sw pop 2 div neg 0 rm  col0 sh gr
/Helvetica ff 180.00 scf sf
6000 3375 m
gs 1 -1 sc (handlers for focus widget) dup sw pop 2 div neg 0 rm  col0 sh gr
/Helvetica ff 180.00 scf sf
5925 4275 m
gs 1 -1 sc (Handled?) dup sw pop 2 div neg 0 rm  col0 sh gr
/Helvetica ff 180.00 scf sf
2700 2325 m
gs 1 -1 sc (Is there) dup sw pop 2 div neg 0 rm  col0 sh gr
/Helvetica ff 180.00 scf sf
2700 2550 m
gs 1 -1 sc (a focus) dup sw pop 2 div neg 0 rm  col0 sh gr
/Helvetica ff 180.00 scf sf
2700 2775 m
gs 1 -1 sc (widget?) dup sw pop 2 div neg 0 rm  col0 sh gr
/Helvetica ff 180.00 scf sf
2775 4125 m
gs 1 -1 sc (accelerator) dup sw pop 2 div neg 0 rm  col0 sh gr
/Helvetica ff 180.00 scf sf
2700 5250 m
gs 1 -1 sc (Handled?) dup sw pop 2 div neg 0 rm  col0 sh gr
/Helvetica ff 180.00 scf sf
2775 6525 m
gs 1 -1 sc (key bindings) dup sw pop 2 div neg 0 rm  col0 sh gr
/Helvetica ff 180.00 scf sf
2775 6750 m
gs 1 -1 sc (for toplevel) dup sw pop 2 div neg 0 rm  col0 sh gr
/Helvetica ff 180.00 scf sf
2775 7500 m
gs 1 -1 sc ("after" ::key_press_event) dup sw pop 2 div neg 0 rm  col0 sh gr
/Helvetica ff 180.00 scf sf
2775 7725 m
gs 1 -1 sc (handlers for toplevel) dup sw pop 2 div neg 0 rm  col0 sh gr
$F2psEnd
rs
