%!PS-Adobe-2.0 EPSF-2.0
%%Title: line-bbox.eps
%%Creator: fig2dev Version 3.2 Patchlevel 1
%%CreationDate: Tue Nov 16 04:03:12 1999
%%For: otaylor@lablap.labs.redhat.com (Owen Taylor)
%%Orientation: Portrait
%%BoundingBox: 0 0 281 97
%%Pages: 0
%%BeginSetup
%%EndSetup
%%Magnification: 1.0000
%%EndComments
/$F2psDict 200 dict def
$F2psDict begin
$F2psDict /mtrx matrix put
/col-1 {0 setgray} bind def
/col0 {0.000 0.000 0.000 srgb} bind def
/col1 {0.000 0.000 1.000 srgb} bind def
/col2 {0.000 1.000 0.000 srgb} bind def
/col3 {0.000 1.000 1.000 srgb} bind def
/col4 {1.000 0.000 0.000 srgb} bind def
/col5 {1.000 0.000 1.000 srgb} bind def
/col6 {1.000 1.000 0.000 srgb} bind def
/col7 {1.000 1.000 1.000 srgb} bind def
/col8 {0.000 0.000 0.560 srgb} bind def
/col9 {0.000 0.000 0.690 srgb} bind def
/col10 {0.000 0.000 0.820 srgb} bind def
/col11 {0.530 0.810 1.000 srgb} bind def
/col12 {0.000 0.560 0.000 srgb} bind def
/col13 {0.000 0.690 0.000 srgb} bind def
/col14 {0.000 0.820 0.000 srgb} bind def
/col15 {0.000 0.560 0.560 srgb} bind def
/col16 {0.000 0.690 0.690 srgb} bind def
/col17 {0.000 0.820 0.820 srgb} bind def
/col18 {0.560 0.000 0.000 srgb} bind def
/col19 {0.690 0.000 0.000 srgb} bind def
/col20 {0.820 0.000 0.000 srgb} bind def
/col21 {0.560 0.000 0.560 srgb} bind def
/col22 {0.690 0.000 0.690 srgb} bind def
/col23 {0.820 0.000 0.820 srgb} bind def
/col24 {0.500 0.190 0.000 srgb} bind def
/col25 {0.630 0.250 0.000 srgb} bind def
/col26 {0.750 0.380 0.000 srgb} bind def
/col27 {1.000 0.500 0.500 srgb} bind def
/col28 {1.000 0.630 0.630 srgb} bind def
/col29 {1.000 0.750 0.750 srgb} bind def
/col30 {1.000 0.880 0.880 srgb} bind def
/col31 {1.000 0.840 0.000 srgb} bind def
/col32 {0.745 0.729 0.745 srgb} bind def

end
save
-53.0 159.0 translate
1 -1 scale

/cp {closepath} bind def
/ef {eofill} bind def
/gr {grestore} bind def
/gs {gsave} bind def
/sa {save} bind def
/rs {restore} bind def
/l {lineto} bind def
/m {moveto} bind def
/rm {rmoveto} bind def
/n {newpath} bind def
/s {stroke} bind def
/sh {show} bind def
/slc {setlinecap} bind def
/slj {setlinejoin} bind def
/slw {setlinewidth} bind def
/srgb {setrgbcolor} bind def
/rot {rotate} bind def
/sc {scale} bind def
/sd {setdash} bind def
/ff {findfont} bind def
/sf {setfont} bind def
/scf {scalefont} bind def
/sw {stringwidth} bind def
/tr {translate} bind def
/tnt {dup dup currentrgbcolor
  4 -2 roll dup 1 exch sub 3 -1 roll mul add
  4 -2 roll dup 1 exch sub 3 -1 roll mul add
  4 -2 roll dup 1 exch sub 3 -1 roll mul add srgb}
  bind def
/shd {dup dup currentrgbcolor 4 -2 roll mul 4 -2 roll mul
  4 -2 roll mul srgb} bind def
 /DrawEllipse {
	/endangle exch def
	/startangle exch def
	/yrad exch def
	/xrad exch def
	/y exch def
	/x exch def
	/savematrix mtrx currentmatrix def
	x y tr xrad yrad sc 0 0 1 startangle endangle arc
	closepath
	savematrix setmatrix
	} def

/$F2psBegin {$F2psDict begin /$F2psEnteredState save def} def
/$F2psEnd {$F2psEnteredState restore end} def
%%EndProlog

$F2psBegin
10 setmiterlimit
n -1000 3642 m -1000 -1000 l 6564 -1000 l 6564 3642 l cp clip
 0.06000 0.06000 sc
% Polyline
7.500 slw
n 2415 1055 m 2415 2630 l 3690 2630 l 3690 1055 l 2415 1055 l  cp gs col0 s gr 
% Polyline
0.000 slw
n 2450 1350 m 2750 1125 l 3650 2325 l 3350 2550 l 2450 1350 l  cp gs col32 1.00 shd ef gr 
% Ellipse
n 3500 2437 187 187 0 360 DrawEllipse gs col32 1.00 shd ef gr 
% Ellipse
n 2600 1237 187 187 0 360 DrawEllipse gs col32 1.00 shd ef gr 
7.500 slw
% Ellipse
n 2600 1237 187 187 0 360 DrawEllipse gs col0 s gr

% Ellipse
n 3499 2437 187 187 0 360 DrawEllipse gs col0 s gr

% Polyline
n 2416 1054 m 2791 1054 l 2791 1429 l 2416 1429 l cp gs col0 s gr 
% Polyline
n 3314 2255 m 3689 2255 l 3689 2630 l 3314 2630 l cp gs col0 s gr 
/Helvetica ff 180.00 scf sf
885 2100 m
gs 1 -1 sc (Bounding) col0 sh gr
/Helvetica ff 180.00 scf sf
885 2325 m
gs 1 -1 sc (boxes for) col0 sh gr
/Helvetica ff 180.00 scf sf
885 2550 m
gs 1 -1 sc (endcaps) col0 sh gr
/Helvetica ff 180.00 scf sf
4395 1185 m
gs 1 -1 sc (Overall) col0 sh gr
/Helvetica ff 180.00 scf sf
4395 1410 m
gs 1 -1 sc (bounding box) col0 sh gr
% Polyline
15.000 slw
gs  clippath
2095 1287 m 2190 1290 l 2112 1344 l 2227 1310 l 2210 1253 l cp
clip
n 1185 1860 m 1186 1858 l 1189 1854 l 1193 1847 l 1200 1836 l 1209 1822 l
 1221 1804 l 1235 1783 l 1251 1759 l 1268 1734 l 1286 1709 l
 1305 1684 l 1324 1660 l 1343 1636 l 1362 1615 l 1382 1595 l
 1402 1577 l 1423 1560 l 1446 1545 l 1470 1530 l 1490 1519 l
 1512 1508 l 1536 1498 l 1562 1487 l 1591 1475 l 1622 1464 l
 1657 1452 l 1693 1439 l 1733 1427 l 1774 1414 l 1817 1400 l
 1860 1387 l 1904 1374 l 1948 1361 l 1989 1348 l 2029 1337 l
 2065 1326 l 2097 1317 l 2124 1309 l 2146 1303 l 2163 1298 l
 2190 1290 l gs col0 s gr gr

% arrowhead
7.500 slw
n 2095 1287 m 2190 1290 l 2112 1344 l 2104 1316 l 2095 1287 l  cp gs 0.00 setgray ef gr  col0 s
% Polyline
15.000 slw
gs  clippath
3131 2447 m 3225 2460 l 3142 2506 l 3260 2484 l 3249 2425 l cp
clip
n 1695 2415 m 1697 2415 l 1701 2416 l 1708 2418 l 1719 2420 l 1735 2423 l
 1756 2427 l 1782 2432 l 1812 2437 l 1847 2444 l 1886 2451 l
 1927 2459 l 1972 2467 l 2018 2476 l 2064 2484 l 2111 2492 l
 2157 2501 l 2202 2508 l 2245 2515 l 2287 2522 l 2327 2528 l
 2364 2533 l 2399 2538 l 2433 2542 l 2464 2545 l 2494 2547 l
 2522 2549 l 2550 2550 l 2579 2551 l 2608 2550 l 2638 2549 l
 2668 2548 l 2699 2545 l 2731 2542 l 2765 2538 l 2800 2534 l
 2836 2529 l 2873 2523 l 2911 2517 l 2949 2511 l 2987 2504 l
 3023 2498 l 3059 2491 l 3092 2485 l 3122 2480 l 3148 2475 l
 3171 2471 l 3189 2467 l 3203 2464 l 3225 2460 l gs col0 s gr gr

% arrowhead
7.500 slw
n 3131 2447 m 3225 2460 l 3142 2506 l 3136 2476 l 3131 2447 l  cp gs 0.00 setgray ef gr  col0 s
% Polyline
15.000 slw
gs  clippath
3874 1264 m 3780 1275 l 3849 1210 l 3740 1261 l 3766 1315 l cp
clip
n 4245 1155 m 4244 1155 l 4241 1156 l 4231 1157 l 4216 1159 l 4194 1163 l
 4168 1167 l 4141 1171 l 4112 1175 l 4086 1180 l 4061 1184 l
 4039 1188 l 4019 1191 l 4002 1195 l 3986 1198 l 3971 1202 l
 3958 1205 l 3940 1210 l 3923 1215 l 3907 1221 l 3889 1227 l
 3870 1235 l 3850 1243 l 3830 1252 l 3810 1261 l 3780 1275 l gs col0 s gr gr

% arrowhead
7.500 slw
n 3874 1264 m 3780 1275 l 3849 1210 l 3862 1237 l 3874 1264 l  cp gs 0.00 setgray ef gr  col0 s
$F2psEnd
rs
