%!PS-Adobe-2.0 EPSF-2.0
%%Title: linestyles.eps
%%Creator: fig2dev Version 3.2 Patchlevel 1
%%CreationDate: Sun Nov 14 17:48:10 1999
%%For: otaylor@fresnel.labs.redhat.com (Owen Taylor,,547-0012 x249)
%%Orientation: Portrait
%%BoundingBox: 0 0 354 212
%%Pages: 0
%%BeginSetup
%%EndSetup
%%Magnification: 1.0000
%%EndComments
/$F2psDict 200 dict def
$F2psDict begin
$F2psDict /mtrx matrix put
/col-1 {0 setgray} bind def
/col0 {0.000 0.000 0.000 srgb} bind def
/col1 {0.000 0.000 1.000 srgb} bind def
/col2 {0.000 1.000 0.000 srgb} bind def
/col3 {0.000 1.000 1.000 srgb} bind def
/col4 {1.000 0.000 0.000 srgb} bind def
/col5 {1.000 0.000 1.000 srgb} bind def
/col6 {1.000 1.000 0.000 srgb} bind def
/col7 {1.000 1.000 1.000 srgb} bind def
/col8 {0.000 0.000 0.560 srgb} bind def
/col9 {0.000 0.000 0.690 srgb} bind def
/col10 {0.000 0.000 0.820 srgb} bind def
/col11 {0.530 0.810 1.000 srgb} bind def
/col12 {0.000 0.560 0.000 srgb} bind def
/col13 {0.000 0.690 0.000 srgb} bind def
/col14 {0.000 0.820 0.000 srgb} bind def
/col15 {0.000 0.560 0.560 srgb} bind def
/col16 {0.000 0.690 0.690 srgb} bind def
/col17 {0.000 0.820 0.820 srgb} bind def
/col18 {0.560 0.000 0.000 srgb} bind def
/col19 {0.690 0.000 0.000 srgb} bind def
/col20 {0.820 0.000 0.000 srgb} bind def
/col21 {0.560 0.000 0.560 srgb} bind def
/col22 {0.690 0.000 0.690 srgb} bind def
/col23 {0.820 0.000 0.820 srgb} bind def
/col24 {0.500 0.190 0.000 srgb} bind def
/col25 {0.630 0.250 0.000 srgb} bind def
/col26 {0.750 0.380 0.000 srgb} bind def
/col27 {1.000 0.500 0.500 srgb} bind def
/col28 {1.000 0.630 0.630 srgb} bind def
/col29 {1.000 0.750 0.750 srgb} bind def
/col30 {1.000 0.880 0.880 srgb} bind def
/col31 {1.000 0.840 0.000 srgb} bind def

end
save
-75.0 285.0 translate
1 -1 scale

/cp {closepath} bind def
/ef {eofill} bind def
/gr {grestore} bind def
/gs {gsave} bind def
/sa {save} bind def
/rs {restore} bind def
/l {lineto} bind def
/m {moveto} bind def
/rm {rmoveto} bind def
/n {newpath} bind def
/s {stroke} bind def
/sh {show} bind def
/slc {setlinecap} bind def
/slj {setlinejoin} bind def
/slw {setlinewidth} bind def
/srgb {setrgbcolor} bind def
/rot {rotate} bind def
/sc {scale} bind def
/sd {setdash} bind def
/ff {findfont} bind def
/sf {setfont} bind def
/scf {scalefont} bind def
/sw {stringwidth} bind def
/tr {translate} bind def
/tnt {dup dup currentrgbcolor
  4 -2 roll dup 1 exch sub 3 -1 roll mul add
  4 -2 roll dup 1 exch sub 3 -1 roll mul add
  4 -2 roll dup 1 exch sub 3 -1 roll mul add srgb}
  bind def
/shd {dup dup currentrgbcolor 4 -2 roll mul 4 -2 roll mul
  4 -2 roll mul srgb} bind def
 /DrawEllipse {
	/endangle exch def
	/startangle exch def
	/yrad exch def
	/xrad exch def
	/y exch def
	/x exch def
	/savematrix mtrx currentmatrix def
	x y tr xrad yrad sc 0 0 1 startangle endangle arc
	closepath
	savematrix setmatrix
	} def

/$F2psBegin {$F2psDict begin /$F2psEnteredState save def} def
/$F2psEnd {$F2psEnteredState restore end} def
%%EndProlog

$F2psBegin
10 setmiterlimit
n -1000 5745 m -1000 -1000 l 8144 -1000 l 8144 5745 l cp clip
 0.06000 0.06000 sc
/Helvetica ff 180.00 scf sf
5836 4745 m
gs 1 -1 sc (GDK_JOIN_BEVEL) dup sw pop 2 div neg 0 rm  col0 sh gr
/Helvetica ff 180.00 scf sf
5836 3518 m
gs 1 -1 sc (GDK_JOIN_ROUND) dup sw pop 2 div neg 0 rm  col0 sh gr
/Helvetica ff 180.00 scf sf
5768 2291 m
gs 1 -1 sc (GDK_JOIN_MITER) dup sw pop 2 div neg 0 rm  col0 sh gr
/Helvetica ff 180.00 scf sf
2836 2291 m
gs 1 -1 sc (GDK_CAP_BUTT) dup sw pop 2 div neg 0 rm  col0 sh gr
/Helvetica ff 180.00 scf sf
2836 3518 m
gs 1 -1 sc (GDK_CAP_ROUND) dup sw pop 2 div neg 0 rm  col0 sh gr
/Helvetica ff 180.00 scf sf
2836 4745 m
gs 1 -1 sc (GDK_CAP_PROJECTING) dup sw pop 2 div neg 0 rm  col0 sh gr
/Helvetica ff 180.00 scf sf
4609 1541 m
gs 1 -1 sc (b\)) dup sw pop 2 div neg 0 rm  col0 sh gr
/Helvetica ff 180.00 scf sf
1336 1541 m
gs 1 -1 sc (a\)) dup sw pop 2 div neg 0 rm  col0 sh gr
% Polyline
7.500 slw
n 1473 3927 m 4200 3927 l 4200 4472 l 1473 4472 l cp gs 0.00 setgray ef gr gs col0 s gr 
% Polyline
n 5768 3722 m 5768 3892 l 5905 3892 l 5905 3722 l cp gs 0.00 setgray ef gr gs col0 s gr 
% Polyline
n 4677 4608 m 4541 4336 l 5768 3722 l 5905 3995 l 4677 4608 l  cp gs 0.00 setgray ef gr gs col0 s gr 
% Polyline
n 5905 3722 m 5768 3995 l 6995 4608 l 7132 4336 l 5905 3722 l  cp gs 0.00 setgray ef gr gs col0 s gr 
% Rotated Ellipse
gs
5836 2632 tr
-90.000 rot
n 0 0 153 153 0 360 DrawEllipse 90.000 rot
gs 0.00 setgray ef gr gs col0 s gr
gr

% Polyline
n 4677 3381 m 4541 3109 l 5768 2495 l 5905 2768 l 4677 3381 l  cp gs 0.00 setgray ef gr gs col0 s gr 
% Polyline
n 5905 2495 m 5768 2768 l 6995 3381 l 7132 3109 l 5905 2495 l  cp gs 0.00 setgray ef gr gs col0 s gr 
% Polyline
n 4677 2154 m 4541 1882 l 5836 1234 l 5905 1541 l 4677 2154 l  cp gs 0.00 setgray ef gr gs col0 s gr 
% Polyline
n 5768 1541 m 6995 2154 l 7132 1882 l 5836 1234 l gs 0.00 setgray ef gr gs col0 s gr 
% Arc
gs n 3927.5 2972.5 272.5 -90.1 90.1 arc
gs 0.00 setgray ef gr gs col0 s gr
 gr

% Arc
gs n 1745.5 2972.5 272.5 -90.1 90.1 arcn
gs 0.00 setgray ef gr gs col0 s gr
 gr

% Polyline
n 1745 2700 m 3927 2700 l 3927 3245 l 1745 3245 l cp gs 0.00 setgray ef gr gs col0 s gr 
% Arc
gs  [90] 0 sd
n 3927.5 4199.5 272.5 -90.1 90.1 arc
gs col7 s gr
 gr
 [] 0 sd
% Arc
gs  [90] 0 sd
n 1745.5 4199.5 272.5 -90.1 90.1 arcn
gs col7 s gr
 gr
 [] 0 sd
% Polyline
n 1745 1473 m 3927 1473 l 3927 2018 l 1745 2018 l cp gs 0.00 setgray ef gr gs col0 s gr 
% Polyline
15.000 slw
gs  clippath
3723 1276 m 3903 1336 l 3723 1396 l 3957 1396 l 3957 1276 l cp
1949 1396 m 1768 1336 l 1949 1276 l 1715 1276 l 1715 1396 l cp
clip
n 1745 1336 m 3927 1336 l gs col0 s gr gr

% arrowhead
n 1949 1396 m 1768 1336 l 1949 1276 l 1949 1336 l 1949 1396 l  cp gs 0.00 setgray ef gr  col0 s
% arrowhead
n 3723 1276 m 3903 1336 l 3723 1396 l 3723 1336 l 3723 1276 l  cp gs 0.00 setgray ef gr  col0 s
% Polyline
gs  clippath
3723 2503 m 3903 2563 l 3723 2623 l 3957 2623 l 3957 2503 l cp
1949 2623 m 1768 2563 l 1949 2503 l 1715 2503 l 1715 2623 l cp
clip
n 1745 2563 m 3927 2563 l gs col0 s gr gr

% arrowhead
n 1949 2623 m 1768 2563 l 1949 2503 l 1949 2563 l 1949 2623 l  cp gs 0.00 setgray ef gr  col0 s
% arrowhead
n 3723 2503 m 3903 2563 l 3723 2623 l 3723 2563 l 3723 2503 l  cp gs 0.00 setgray ef gr  col0 s
% Polyline
gs  clippath
3723 3730 m 3903 3790 l 3723 3850 l 3957 3850 l 3957 3730 l cp
1949 3850 m 1768 3790 l 1949 3730 l 1715 3730 l 1715 3850 l cp
clip
n 1745 3790 m 3927 3790 l gs col0 s gr gr

% arrowhead
n 1949 3850 m 1768 3790 l 1949 3730 l 1949 3790 l 1949 3850 l  cp gs 0.00 setgray ef gr  col0 s
% arrowhead
n 3723 3730 m 3903 3790 l 3723 3850 l 3723 3790 l 3723 3730 l  cp gs 0.00 setgray ef gr  col0 s
$F2psEnd
rs
