%!PS-Adobe-2.0 EPSF-2.0
%%Title: mainloop.eps
%%Creator: fig2dev Version 3.2 Patchlevel 1
%%CreationDate: Sun Nov 21 00:36:51 1999
%%For: otaylor@lablap.labs.redhat.com (Owen Taylor)
%%Orientation: Portrait
%%BoundingBox: 0 0 352 170
%%Pages: 0
%%BeginSetup
%%EndSetup
%%Magnification: 1.0000
%%EndComments
/$F2psDict 200 dict def
$F2psDict begin
$F2psDict /mtrx matrix put
/col-1 {0 setgray} bind def
/col0 {0.000 0.000 0.000 srgb} bind def
/col1 {0.000 0.000 1.000 srgb} bind def
/col2 {0.000 1.000 0.000 srgb} bind def
/col3 {0.000 1.000 1.000 srgb} bind def
/col4 {1.000 0.000 0.000 srgb} bind def
/col5 {1.000 0.000 1.000 srgb} bind def
/col6 {1.000 1.000 0.000 srgb} bind def
/col7 {1.000 1.000 1.000 srgb} bind def
/col8 {0.000 0.000 0.560 srgb} bind def
/col9 {0.000 0.000 0.690 srgb} bind def
/col10 {0.000 0.000 0.820 srgb} bind def
/col11 {0.530 0.810 1.000 srgb} bind def
/col12 {0.000 0.560 0.000 srgb} bind def
/col13 {0.000 0.690 0.000 srgb} bind def
/col14 {0.000 0.820 0.000 srgb} bind def
/col15 {0.000 0.560 0.560 srgb} bind def
/col16 {0.000 0.690 0.690 srgb} bind def
/col17 {0.000 0.820 0.820 srgb} bind def
/col18 {0.560 0.000 0.000 srgb} bind def
/col19 {0.690 0.000 0.000 srgb} bind def
/col20 {0.820 0.000 0.000 srgb} bind def
/col21 {0.560 0.000 0.560 srgb} bind def
/col22 {0.690 0.000 0.690 srgb} bind def
/col23 {0.820 0.000 0.820 srgb} bind def
/col24 {0.500 0.190 0.000 srgb} bind def
/col25 {0.630 0.250 0.000 srgb} bind def
/col26 {0.750 0.380 0.000 srgb} bind def
/col27 {1.000 0.500 0.500 srgb} bind def
/col28 {1.000 0.630 0.630 srgb} bind def
/col29 {1.000 0.750 0.750 srgb} bind def
/col30 {1.000 0.880 0.880 srgb} bind def
/col31 {1.000 0.840 0.000 srgb} bind def
/col32 {0.812 0.812 0.812 srgb} bind def

end
save
-94.0 303.0 translate
1 -1 scale

/cp {closepath} bind def
/ef {eofill} bind def
/gr {grestore} bind def
/gs {gsave} bind def
/sa {save} bind def
/rs {restore} bind def
/l {lineto} bind def
/m {moveto} bind def
/rm {rmoveto} bind def
/n {newpath} bind def
/s {stroke} bind def
/sh {show} bind def
/slc {setlinecap} bind def
/slj {setlinejoin} bind def
/slw {setlinewidth} bind def
/srgb {setrgbcolor} bind def
/rot {rotate} bind def
/sc {scale} bind def
/sd {setdash} bind def
/ff {findfont} bind def
/sf {setfont} bind def
/scf {scalefont} bind def
/sw {stringwidth} bind def
/tr {translate} bind def
/tnt {dup dup currentrgbcolor
  4 -2 roll dup 1 exch sub 3 -1 roll mul add
  4 -2 roll dup 1 exch sub 3 -1 roll mul add
  4 -2 roll dup 1 exch sub 3 -1 roll mul add srgb}
  bind def
/shd {dup dup currentrgbcolor 4 -2 roll mul 4 -2 roll mul
  4 -2 roll mul srgb} bind def
/$F2psBegin {$F2psDict begin /$F2psEnteredState save def} def
/$F2psEnd {$F2psEnteredState restore end} def
%%EndProlog

$F2psBegin
10 setmiterlimit
n -1000 6047 m -1000 -1000 l 8426 -1000 l 8426 6047 l cp clip
 0.06000 0.06000 sc
% Arc
15.000 slw
gs n 2700.0 2625.0 375.0 180.0 -90.0 arc
gs col0 s gr
 gr

% Arc
gs n 2700.0 4650.0 375.0 180.0 90.0 arcn
gs col0 s gr
 gr

% Arc
gs n 3750.0 2625.0 375.0 0.0 -90.0 arcn
gs col0 s gr
 gr

% Arc
gs n 6375.0 2625.0 375.0 0.0 -90.0 arcn
gs col0 s gr
 gr

% Arc
gs n 3750.0 4650.0 375.0 0.0 90.0 arc
gs col0 s gr
 gr

% Arc
gs n 5100.0 4650.0 375.0 0.0 90.0 arc
gs col0 s gr
 gr

% Arc
gs n 5100.0 2625.0 375.0 0.0 -90.0 arcn
gs col0 s gr
 gr

% Arc
gs n 6375.0 4650.0 375.0 0.0 90.0 arc
gs col0 s gr
 gr

% Polyline
n 2325 3675 m 2325 2625 l gs col0 s gr 
% Polyline
n 2700 2250 m 6375 2250 l gs col0 s gr 
% Polyline
n 6375 5025 m 2700 5025 l gs col0 s gr 
% Polyline
0.000 slw
n 3555 2850 m 3450 2850 3450 3495 105 arcto 4 {pop} repeat
  3450 3600 4695 3600 105 arcto 4 {pop} repeat
  4800 3600 4800 2955 105 arcto 4 {pop} repeat
  4800 2850 3555 2850 105 arcto 4 {pop} repeat
 cp gs col32 1.00 shd ef gr 
% Polyline
n 5130 3600 m 5025 3600 5025 4020 105 arcto 4 {pop} repeat
  5025 4125 5820 4125 105 arcto 4 {pop} repeat
  5925 4125 5925 3705 105 arcto 4 {pop} repeat
  5925 3600 5130 3600 105 arcto 4 {pop} repeat
 cp gs col32 1.00 shd ef gr 
% Polyline
15.000 slw
n 4125 3675 m 4125 4650 l gs col0 s gr 
% Polyline
n 5475 4200 m 5475 4650 l gs col0 s gr 
% Polyline
n 6750 3450 m 6750 4650 l gs col0 s gr 
% Polyline
gs  clippath
4155 2624 m 4125 2744 l 4095 2624 l 4095 2805 l 4155 2805 l cp
clip
n 4125 2625 m 4125 2775 l gs col0 s gr gr

% arrowhead
n 4155 2624 m 4125 2744 l 4095 2624 l 4125 2624 l 4155 2624 l  cp gs 0.00 setgray ef gr  col0 s
% Polyline
gs  clippath
5505 3374 m 5475 3494 l 5445 3374 l 5445 3555 l 5505 3555 l cp
clip
n 5475 2625 m 5475 3525 l gs col0 s gr gr

% arrowhead
n 5505 3374 m 5475 3494 l 5445 3374 l 5475 3374 l 5505 3374 l  cp gs 0.00 setgray ef gr  col0 s
% Polyline
gs  clippath
6780 2699 m 6750 2819 l 6720 2699 l 6720 2880 l 6780 2880 l cp
clip
n 6750 2625 m 6750 2850 l gs col0 s gr gr

% arrowhead
n 6780 2699 m 6750 2819 l 6720 2699 l 6750 2699 l 6780 2699 l  cp gs 0.00 setgray ef gr  col0 s
% Polyline
0.000 slw
n 6180 2925 m 6075 2925 6075 3270 105 arcto 4 {pop} repeat
  6075 3375 7320 3375 105 arcto 4 {pop} repeat
  7425 3375 7425 3030 105 arcto 4 {pop} repeat
  7425 2925 6180 2925 105 arcto 4 {pop} repeat
 cp gs col32 1.00 shd ef gr 
% Polyline
15.000 slw
gs  clippath
2295 4201 m 2325 4080 l 2355 4201 l 2355 4020 l 2295 4020 l cp
clip
n 2325 4650 m 2325 4050 l gs col0 s gr gr

% arrowhead
n 2295 4201 m 2325 4080 l 2355 4201 l 2325 4201 l 2295 4201 l  cp gs 0.00 setgray ef gr  col0 s
/Helvetica ff 180.00 scf sf
4125 3075 m
gs 1 -1 sc (Events) dup sw pop 2 div neg 0 rm  col0 sh gr
/Helvetica ff 180.00 scf sf
4125 3300 m
gs 1 -1 sc (Input Handlers) dup sw pop 2 div neg 0 rm  col0 sh gr
/Helvetica ff 180.00 scf sf
4125 3525 m
gs 1 -1 sc (Timeouts) dup sw pop 2 div neg 0 rm  col0 sh gr
/Helvetica ff 180.00 scf sf
5475 3825 m
gs 1 -1 sc (Redraw) dup sw pop 2 div neg 0 rm  col0 sh gr
/Helvetica ff 180.00 scf sf
5475 4050 m
gs 1 -1 sc (Resize) dup sw pop 2 div neg 0 rm  col0 sh gr
/Helvetica ff 180.00 scf sf
6750 3225 m
gs 1 -1 sc (Idle Functions) dup sw pop 2 div neg 0 rm  col0 sh gr
/Courier ff 180.00 scf sf
2550 3900 m
gs 1 -1 sc (g_main_iteration\(\)) dup sw pop 2 div neg 0 rm  col0 sh gr
$F2psEnd
rs
