%!PS-Adobe-2.0 EPSF-2.0
%%Title: nested3.eps
%%Creator: fig2dev Version 3.2 Patchlevel 1
%%CreationDate: Sun Oct 31 17:28:57 1999
%%For: imain@hokey (Ian Main)
%%Orientation: Portrait
%%BoundingBox: 0 0 510 185
%%Pages: 0
%%BeginSetup
%%EndSetup
%%Magnification: 1.0000
%%EndComments
/$F2psDict 200 dict def
$F2psDict begin
$F2psDict /mtrx matrix put
/col-1 {0 setgray} bind def
/col0 {0.000 0.000 0.000 srgb} bind def
/col1 {0.000 0.000 1.000 srgb} bind def
/col2 {0.000 1.000 0.000 srgb} bind def
/col3 {0.000 1.000 1.000 srgb} bind def
/col4 {1.000 0.000 0.000 srgb} bind def
/col5 {1.000 0.000 1.000 srgb} bind def
/col6 {1.000 1.000 0.000 srgb} bind def
/col7 {1.000 1.000 1.000 srgb} bind def
/col8 {0.000 0.000 0.560 srgb} bind def
/col9 {0.000 0.000 0.690 srgb} bind def
/col10 {0.000 0.000 0.820 srgb} bind def
/col11 {0.530 0.810 1.000 srgb} bind def
/col12 {0.000 0.560 0.000 srgb} bind def
/col13 {0.000 0.690 0.000 srgb} bind def
/col14 {0.000 0.820 0.000 srgb} bind def
/col15 {0.000 0.560 0.560 srgb} bind def
/col16 {0.000 0.690 0.690 srgb} bind def
/col17 {0.000 0.820 0.820 srgb} bind def
/col18 {0.560 0.000 0.000 srgb} bind def
/col19 {0.690 0.000 0.000 srgb} bind def
/col20 {0.820 0.000 0.000 srgb} bind def
/col21 {0.560 0.000 0.560 srgb} bind def
/col22 {0.690 0.000 0.690 srgb} bind def
/col23 {0.820 0.000 0.820 srgb} bind def
/col24 {0.500 0.190 0.000 srgb} bind def
/col25 {0.630 0.250 0.000 srgb} bind def
/col26 {0.750 0.380 0.000 srgb} bind def
/col27 {1.000 0.500 0.500 srgb} bind def
/col28 {1.000 0.630 0.630 srgb} bind def
/col29 {1.000 0.750 0.750 srgb} bind def
/col30 {1.000 0.880 0.880 srgb} bind def
/col31 {1.000 0.840 0.000 srgb} bind def

end
save
-75.0 212.0 translate
1 -1 scale

/cp {closepath} bind def
/ef {eofill} bind def
/gr {grestore} bind def
/gs {gsave} bind def
/sa {save} bind def
/rs {restore} bind def
/l {lineto} bind def
/m {moveto} bind def
/rm {rmoveto} bind def
/n {newpath} bind def
/s {stroke} bind def
/sh {show} bind def
/slc {setlinecap} bind def
/slj {setlinejoin} bind def
/slw {setlinewidth} bind def
/srgb {setrgbcolor} bind def
/rot {rotate} bind def
/sc {scale} bind def
/sd {setdash} bind def
/ff {findfont} bind def
/sf {setfont} bind def
/scf {scalefont} bind def
/sw {stringwidth} bind def
/tr {translate} bind def
/tnt {dup dup currentrgbcolor
  4 -2 roll dup 1 exch sub 3 -1 roll mul add
  4 -2 roll dup 1 exch sub 3 -1 roll mul add
  4 -2 roll dup 1 exch sub 3 -1 roll mul add srgb}
  bind def
/shd {dup dup currentrgbcolor 4 -2 roll mul 4 -2 roll mul
  4 -2 roll mul srgb} bind def
/$F2psBegin {$F2psDict begin /$F2psEnteredState save def} def
/$F2psEnd {$F2psEnteredState restore end} def
%%EndProlog

$F2psBegin
10 setmiterlimit
n -1000 4525 m -1000 -1000 l 10742 -1000 l 10742 4525 l cp clip
 0.06000 0.06000 sc
/Times-Roman ff 180.00 scf sf
8850 600 m
gs 1 -1 sc (0xdeadbeaf) col0 sh gr
% Polyline
7.500 slw
n 4275 600 m 5250 600 l 5250 2400 l 4275 2400 l cp gs col0 s gr 
% Polyline
n 5550 600 m 6600 600 l 6600 2850 l 5550 2850 l cp gs col0 s gr 
% Polyline
n 6900 600 m 7950 600 l 7950 3225 l 6900 3225 l cp gs col0 s gr 
% Polyline
n 1875 600 m 2775 600 l 2775 1425 l 1875 1425 l cp gs col0 s gr 
% Polyline
n 1275 600 m 8700 600 l gs col0 s gr 
/Times-Roman ff 180.00 scf sf
1950 1800 m
gs 1 -1 sc (GtkObject) col0 sh gr
/Times-Roman ff 180.00 scf sf
3150 2175 m
gs 1 -1 sc (GtkWidget) col0 sh gr
/Times-Roman ff 180.00 scf sf
4275 2775 m
gs 1 -1 sc (GtkContainer) col0 sh gr
/Times-Roman ff 180.00 scf sf
5850 3225 m
gs 1 -1 sc (GtkBin) col0 sh gr
/Times-Roman ff 180.00 scf sf
6975 3525 m
gs 1 -1 sc (GtkWindow) col0 sh gr
% Polyline
n 3075 600 m 3975 600 l 3975 1875 l 3075 1875 l cp gs col0 s gr 
$F2psEnd
rs
