%!PS-Adobe-2.0 EPSF-2.0
%%Title: request-alloc.eps
%%Creator: fig2dev Version 3.2 Patchlevel 1
%%CreationDate: Tue Nov 23 21:53:51 1999
%%For: otaylor@lablap.labs.redhat.com (Owen Taylor)
%%Orientation: Portrait
%%BoundingBox: 0 0 359 123
%%Pages: 0
%%BeginSetup
%%EndSetup
%%Magnification: 1.0000
%%EndComments
/$F2psDict 200 dict def
$F2psDict begin
$F2psDict /mtrx matrix put
/col-1 {0 setgray} bind def
/col0 {0.000 0.000 0.000 srgb} bind def
/col1 {0.000 0.000 1.000 srgb} bind def
/col2 {0.000 1.000 0.000 srgb} bind def
/col3 {0.000 1.000 1.000 srgb} bind def
/col4 {1.000 0.000 0.000 srgb} bind def
/col5 {1.000 0.000 1.000 srgb} bind def
/col6 {1.000 1.000 0.000 srgb} bind def
/col7 {1.000 1.000 1.000 srgb} bind def
/col8 {0.000 0.000 0.560 srgb} bind def
/col9 {0.000 0.000 0.690 srgb} bind def
/col10 {0.000 0.000 0.820 srgb} bind def
/col11 {0.530 0.810 1.000 srgb} bind def
/col12 {0.000 0.560 0.000 srgb} bind def
/col13 {0.000 0.690 0.000 srgb} bind def
/col14 {0.000 0.820 0.000 srgb} bind def
/col15 {0.000 0.560 0.560 srgb} bind def
/col16 {0.000 0.690 0.690 srgb} bind def
/col17 {0.000 0.820 0.820 srgb} bind def
/col18 {0.560 0.000 0.000 srgb} bind def
/col19 {0.690 0.000 0.000 srgb} bind def
/col20 {0.820 0.000 0.000 srgb} bind def
/col21 {0.560 0.000 0.560 srgb} bind def
/col22 {0.690 0.000 0.690 srgb} bind def
/col23 {0.820 0.000 0.820 srgb} bind def
/col24 {0.500 0.190 0.000 srgb} bind def
/col25 {0.630 0.250 0.000 srgb} bind def
/col26 {0.750 0.380 0.000 srgb} bind def
/col27 {1.000 0.500 0.500 srgb} bind def
/col28 {1.000 0.630 0.630 srgb} bind def
/col29 {1.000 0.750 0.750 srgb} bind def
/col30 {1.000 0.880 0.880 srgb} bind def
/col31 {1.000 0.840 0.000 srgb} bind def
/col32 {0.557 0.541 0.557 srgb} bind def
/col33 {0.682 0.667 0.682 srgb} bind def
/col34 {0.812 0.812 0.812 srgb} bind def

end
save
-10.0 141.0 translate
1 -1 scale

/cp {closepath} bind def
/ef {eofill} bind def
/gr {grestore} bind def
/gs {gsave} bind def
/sa {save} bind def
/rs {restore} bind def
/l {lineto} bind def
/m {moveto} bind def
/rm {rmoveto} bind def
/n {newpath} bind def
/s {stroke} bind def
/sh {show} bind def
/slc {setlinecap} bind def
/slj {setlinejoin} bind def
/slw {setlinewidth} bind def
/srgb {setrgbcolor} bind def
/rot {rotate} bind def
/sc {scale} bind def
/sd {setdash} bind def
/ff {findfont} bind def
/sf {setfont} bind def
/scf {scalefont} bind def
/sw {stringwidth} bind def
/tr {translate} bind def
/tnt {dup dup currentrgbcolor
  4 -2 roll dup 1 exch sub 3 -1 roll mul add
  4 -2 roll dup 1 exch sub 3 -1 roll mul add
  4 -2 roll dup 1 exch sub 3 -1 roll mul add srgb}
  bind def
/shd {dup dup currentrgbcolor 4 -2 roll mul 4 -2 roll mul
  4 -2 roll mul srgb} bind def
/$F2psBegin {$F2psDict begin /$F2psEnteredState save def} def
/$F2psEnd {$F2psEnteredState restore end} def
%%EndProlog

$F2psBegin
10 setmiterlimit
n -1000 3337 m -1000 -1000 l 7140 -1000 l 7140 3337 l cp clip
 0.06000 0.06000 sc
% Polyline
7.500 slw
n 188 563 m 2846 563 l 2846 1854 l 188 1854 l cp gs col32 1.00 shd ef gr gs col0 s gr 
% Polyline
n 3454 563 m 6112 563 l 6112 1854 l 3454 1854 l cp gs col32 1.00 shd ef gr gs col0 s gr 
% Polyline
n 264 639 m 2770 639 l 2770 1778 l 264 1778 l cp gs col33 1.00 shd ef gr gs col0 s gr 
% Polyline
n 3530 639 m 6036 639 l 6036 1778 l 3530 1778 l cp gs col33 1.00 shd ef gr gs col0 s gr 
% Polyline
n 340 1246 m 2694 1246 l 2694 1702 l 340 1702 l cp gs col34 1.00 shd ef gr gs col0 s gr 
% Polyline
n 720 715 m 2315 715 l 2315 1171 l 720 1171 l cp gs col34 1.00 shd ef gr gs col0 s gr 
% Polyline
n 3606 715 m 5960 715 l 5960 1171 l 3606 1171 l cp gs col34 1.00 shd ef gr gs col0 s gr 
% Polyline
n 3606 1246 m 5960 1246 l 5960 1702 l 3606 1702 l cp gs col34 1.00 shd ef gr gs col0 s gr 
% Polyline
n 416 1322 m 1099 1322 l 1099 1626 l 416 1626 l cp gs col7 1.00 shd ef gr gs col0 s gr 
% Polyline
n 1175 1322 m 1859 1322 l 1859 1626 l 1175 1626 l cp gs col7 1.00 shd ef gr gs col0 s gr 
% Polyline
n 1935 1322 m 2618 1322 l 2618 1626 l 1935 1626 l cp gs col7 1.00 shd ef gr gs col0 s gr 
% Polyline
n 1555 791 m 2239 791 l 2239 1095 l 1555 1095 l cp gs col7 1.00 shd ef gr gs col0 s gr 
% Polyline
n 796 791 m 1479 791 l 1479 1095 l 796 1095 l cp gs col7 1.00 shd ef gr gs col0 s gr 
% Polyline
n 3682 791 m 4745 791 l 4745 1095 l 3682 1095 l cp gs col7 1.00 shd ef gr gs col0 s gr 
% Polyline
n 4821 791 m 5884 791 l 5884 1095 l 4821 1095 l cp gs col7 1.00 shd ef gr gs col0 s gr 
% Polyline
n 5201 1322 m 5884 1322 l 5884 1626 l 5201 1626 l cp gs col7 1.00 shd ef gr gs col0 s gr 
% Polyline
n 4441 1322 m 5125 1322 l 5125 1626 l 4441 1626 l cp gs col7 1.00 shd ef gr gs col0 s gr 
% Polyline
n 3682 1322 m 4365 1322 l 4365 1626 l 3682 1626 l cp gs col7 1.00 shd ef gr gs col0 s gr 
% Polyline
n 4950 2025 m 5250 2025 l 5250 2325 l 4950 2325 l cp gs col7 1.00 shd ef gr gs col0 s gr 
% Polyline
n 1800 2025 m 2100 2025 l 2100 2325 l 1800 2325 l cp gs col33 1.00 shd ef gr gs col0 s gr 
% Polyline
n 225 2025 m 525 2025 l 525 2325 l 225 2325 l cp gs col32 1.00 shd ef gr gs col0 s gr 
% Polyline
n 3450 2025 m 3750 2025 l 3750 2325 l 3450 2325 l cp gs col34 1.00 shd ef gr gs col0 s gr 
/Helvetica ff 180.00 scf sf
1500 450 m
gs 1 -1 sc (Requistions) dup sw pop 2 div neg 0 rm  col0 sh gr
/Helvetica ff 180.00 scf sf
4725 450 m
gs 1 -1 sc (Allocations) dup sw pop 2 div neg 0 rm  col0 sh gr
/Helvetica ff 165.00 scf sf
1517 1550 m
gs 1 -1 sc (Label #4) dup sw pop 2 div neg 0 rm  col0 sh gr
/Helvetica ff 165.00 scf sf
1137 1019 m
gs 1 -1 sc (Label #1) dup sw pop 2 div neg 0 rm  col0 sh gr
/Helvetica ff 165.00 scf sf
1897 1019 m
gs 1 -1 sc (Label #2) dup sw pop 2 div neg 0 rm  col0 sh gr
/Helvetica ff 165.00 scf sf
758 1550 m
gs 1 -1 sc (Label #3) dup sw pop 2 div neg 0 rm  col0 sh gr
/Helvetica ff 165.00 scf sf
2277 1550 m
gs 1 -1 sc (Label #5) dup sw pop 2 div neg 0 rm  col0 sh gr
/Helvetica ff 165.00 scf sf
4251 1019 m
gs 1 -1 sc (Label #1) dup sw pop 2 div neg 0 rm  col0 sh gr
/Helvetica ff 165.00 scf sf
5353 1019 m
gs 1 -1 sc (Label #2) dup sw pop 2 div neg 0 rm  col0 sh gr
/Helvetica ff 165.00 scf sf
5542 1550 m
gs 1 -1 sc (Label #5) dup sw pop 2 div neg 0 rm  col0 sh gr
/Helvetica ff 165.00 scf sf
4783 1550 m
gs 1 -1 sc (Label #4) dup sw pop 2 div neg 0 rm  col0 sh gr
/Helvetica ff 165.00 scf sf
4023 1550 m
gs 1 -1 sc (Label #3) dup sw pop 2 div neg 0 rm  col0 sh gr
/Helvetica ff 180.00 scf sf
5325 2250 m
gs 1 -1 sc (GtkButton) col0 sh gr
/Helvetica ff 180.00 scf sf
2175 2250 m
gs 1 -1 sc (GtkVBox) col0 sh gr
/Helvetica ff 180.00 scf sf
600 2250 m
gs 1 -1 sc (GtkWindow) col0 sh gr
/Helvetica ff 180.00 scf sf
3825 2250 m
gs 1 -1 sc (GtkHBox) col0 sh gr
$F2psEnd
rs
