%!PS-Adobe-2.0 EPSF-2.0
%%Title: table.eps
%%Creator: fig2dev Version 3.2 Patchlevel 1
%%CreationDate: Tue Nov 23 22:52:26 1999
%%For: otaylor@lablap.labs.redhat.com (Owen Taylor)
%%Orientation: Portrait
%%BoundingBox: 0 0 281 249
%%Pages: 0
%%BeginSetup
%%EndSetup
%%Magnification: 1.0000
%%EndComments
/$F2psDict 200 dict def
$F2psDict begin
$F2psDict /mtrx matrix put
/col-1 {0 setgray} bind def
/col0 {0.000 0.000 0.000 srgb} bind def
/col1 {0.000 0.000 1.000 srgb} bind def
/col2 {0.000 1.000 0.000 srgb} bind def
/col3 {0.000 1.000 1.000 srgb} bind def
/col4 {1.000 0.000 0.000 srgb} bind def
/col5 {1.000 0.000 1.000 srgb} bind def
/col6 {1.000 1.000 0.000 srgb} bind def
/col7 {1.000 1.000 1.000 srgb} bind def
/col8 {0.000 0.000 0.560 srgb} bind def
/col9 {0.000 0.000 0.690 srgb} bind def
/col10 {0.000 0.000 0.820 srgb} bind def
/col11 {0.530 0.810 1.000 srgb} bind def
/col12 {0.000 0.560 0.000 srgb} bind def
/col13 {0.000 0.690 0.000 srgb} bind def
/col14 {0.000 0.820 0.000 srgb} bind def
/col15 {0.000 0.560 0.560 srgb} bind def
/col16 {0.000 0.690 0.690 srgb} bind def
/col17 {0.000 0.820 0.820 srgb} bind def
/col18 {0.560 0.000 0.000 srgb} bind def
/col19 {0.690 0.000 0.000 srgb} bind def
/col20 {0.820 0.000 0.000 srgb} bind def
/col21 {0.560 0.000 0.560 srgb} bind def
/col22 {0.690 0.000 0.690 srgb} bind def
/col23 {0.820 0.000 0.820 srgb} bind def
/col24 {0.500 0.190 0.000 srgb} bind def
/col25 {0.630 0.250 0.000 srgb} bind def
/col26 {0.750 0.380 0.000 srgb} bind def
/col27 {1.000 0.500 0.500 srgb} bind def
/col28 {1.000 0.630 0.630 srgb} bind def
/col29 {1.000 0.750 0.750 srgb} bind def
/col30 {1.000 0.880 0.880 srgb} bind def
/col31 {1.000 0.840 0.000 srgb} bind def
/col32 {0.557 0.541 0.557 srgb} bind def
/col33 {0.745 0.729 0.745 srgb} bind def

end
save
-60.0 309.0 translate
1 -1 scale

/cp {closepath} bind def
/ef {eofill} bind def
/gr {grestore} bind def
/gs {gsave} bind def
/sa {save} bind def
/rs {restore} bind def
/l {lineto} bind def
/m {moveto} bind def
/rm {rmoveto} bind def
/n {newpath} bind def
/s {stroke} bind def
/sh {show} bind def
/slc {setlinecap} bind def
/slj {setlinejoin} bind def
/slw {setlinewidth} bind def
/srgb {setrgbcolor} bind def
/rot {rotate} bind def
/sc {scale} bind def
/sd {setdash} bind def
/ff {findfont} bind def
/sf {setfont} bind def
/scf {scalefont} bind def
/sw {stringwidth} bind def
/tr {translate} bind def
/tnt {dup dup currentrgbcolor
  4 -2 roll dup 1 exch sub 3 -1 roll mul add
  4 -2 roll dup 1 exch sub 3 -1 roll mul add
  4 -2 roll dup 1 exch sub 3 -1 roll mul add srgb}
  bind def
/shd {dup dup currentrgbcolor 4 -2 roll mul 4 -2 roll mul
  4 -2 roll mul srgb} bind def
/$F2psBegin {$F2psDict begin /$F2psEnteredState save def} def
/$F2psEnd {$F2psEnteredState restore end} def
%%EndProlog

$F2psBegin
10 setmiterlimit
n -1000 6141 m -1000 -1000 l 6672 -1000 l 6672 6141 l cp clip
 0.06000 0.06000 sc
% Polyline
n 2767 1301 m 5537 1301 l 5537 2441 l 2767 2441 l cp gs col33 1.00 shd ef gr 
% Polyline
n 2767 2604 m 4071 2604 l 4071 3744 l 2767 3744 l cp gs col33 1.00 shd ef gr 
% Polyline
n 1301 2604 m 2604 2604 l 2604 5048 l 1301 5048 l cp gs col33 1.00 shd ef gr 
% Polyline
n 4234 3907 m 5537 3907 l 5537 5048 l 4234 5048 l cp gs col33 1.00 shd ef gr 
% Polyline
n 1301 1301 m 2604 1301 l 2604 2441 l 1301 2441 l cp gs col33 1.00 shd ef gr 
/Helvetica ff 180.00 scf sf
1382 2848 m
gs 1 -1 sc (x:) col0 sh gr
/Helvetica ff 180.00 scf sf
1382 3093 m
gs 1 -1 sc (y: expand) col0 sh gr
/Helvetica ff 180.00 scf sf
2849 1545 m
gs 1 -1 sc (x: fill | expand) col0 sh gr
/Helvetica ff 180.00 scf sf
2849 1790 m
gs 1 -1 sc (y:) col0 sh gr
/Helvetica ff 180.00 scf sf
2849 2848 m
gs 1 -1 sc (x: fill | expand) col0 sh gr
/Helvetica ff 180.00 scf sf
2849 3093 m
gs 1 -1 sc (y: fill | expand) col0 sh gr
/Helvetica ff 180.00 scf sf
4315 4152 m
gs 1 -1 sc (x:) col0 sh gr
/Helvetica ff 180.00 scf sf
4315 4396 m
gs 1 -1 sc (y:) col0 sh gr
% Polyline
7.500 slw
n 2686 1219 m 2686 5129 l gs col32 s gr 
% Polyline
n 4152 1219 m 4152 5129 l gs col32 s gr 
% Polyline
n 1219 2523 m 5619 2523 l gs col32 s gr 
% Polyline
n 1219 3826 m 5619 3826 l gs col32 s gr 
% Polyline
n 1219 1219 m 5619 1219 l 5619 5129 l 1219 5129 l cp gs col32 s gr 
/Helvetica ff 180.00 scf sf
1056 5129 m
gs 1 -1 sc (3) dup sw pop 2 div neg 0 rm  col0 sh gr
/Helvetica ff 180.00 scf sf
1056 3907 m
gs 1 -1 sc (2) dup sw pop 2 div neg 0 rm  col0 sh gr
/Helvetica ff 180.00 scf sf
1056 2604 m
gs 1 -1 sc (1) dup sw pop 2 div neg 0 rm  col0 sh gr
/Helvetica ff 180.00 scf sf
1056 1301 m
gs 1 -1 sc (0) dup sw pop 2 div neg 0 rm  col0 sh gr
/Helvetica ff 180.00 scf sf
5619 1138 m
gs 1 -1 sc (3) dup sw pop 2 div neg 0 rm  col0 sh gr
/Helvetica ff 180.00 scf sf
4152 1138 m
gs 1 -1 sc (2) dup sw pop 2 div neg 0 rm  col0 sh gr
/Helvetica ff 180.00 scf sf
2686 1138 m
gs 1 -1 sc (1) dup sw pop 2 div neg 0 rm  col0 sh gr
/Helvetica ff 180.00 scf sf
1219 1138 m
gs 1 -1 sc (0) dup sw pop 2 div neg 0 rm  col0 sh gr
/Helvetica ff 180.00 scf sf
1382 1545 m
gs 1 -1 sc (x: fill) col0 sh gr
/Helvetica ff 180.00 scf sf
1382 1790 m
gs 1 -1 sc (y:) col0 sh gr
$F2psEnd
rs
